EESchema Schematic File Version 2
LIBS:power
LIBS:device
LIBS:transistors
LIBS:conn
LIBS:linear
LIBS:regul
LIBS:74xx
LIBS:cmos4000
LIBS:adc-dac
LIBS:memory
LIBS:xilinx
LIBS:special
LIBS:microcontrollers
LIBS:dsp
LIBS:microchip
LIBS:analog_switches
LIBS:motorola
LIBS:texas
LIBS:intel
LIBS:audio
LIBS:interface
LIBS:digital-audio
LIBS:philips
LIBS:display
LIBS:cypress
LIBS:siliconi
LIBS:opto
LIBS:atmel
LIBS:contrib
LIBS:valves
LIBS:micro-cache
LIBS:XPRESSO1769
LIBS:nxp_armmcu
LIBS:lm2596
LIBS:relay
LIBS:Board-cache
EELAYER 25 0
EELAYER END
$Descr A4 11693 8268
encoding utf-8
Sheet 6 6
Title ""
Date "22 aug 2015"
Rev ""
Comp ""
Comment1 ""
Comment2 ""
Comment3 ""
Comment4 ""
$EndDescr
$Comp
L GND #PWR025
U 1 1 55A04F42
P 1650 2050
AR Path="/55AD4233/55A04F42" Ref="#PWR025"  Part="1" 
AR Path="/55FAE325/55A04F42" Ref="#PWR025"  Part="1" 
AR Path="/55FAEDFB/55A04F42" Ref="#PWR025"  Part="1" 
F 0 "#PWR025" H 1650 2050 30  0001 C CNN
F 1 "GND" H 1650 1980 30  0001 C CNN
F 2 "" H 1650 2050 60  0001 C CNN
F 3 "" H 1650 2050 60  0001 C CNN
	1    1650 2050
	1    0    0    -1  
$EndComp
$Comp
L LED D9
U 1 1 55A04E33
P 1900 1350
AR Path="/55AD4233/55A04E33" Ref="D9"  Part="1" 
AR Path="/55FAE325/55A04E33" Ref="D9"  Part="1" 
AR Path="/55FAEDFB/55A04E33" Ref="D9"  Part="1" 
F 0 "D9" V 1900 1450 50  0000 C CNN
F 1 "LED" H 1900 1250 50  0000 C CNN
F 2 "" H 1900 1350 60  0001 C CNN
F 3 "" H 1900 1350 60  0001 C CNN
	1    1900 1350
	-1   0    0    1   
$EndComp
$Comp
L BUZ11 Q1
U 1 1 55F76932
P 1550 1750
AR Path="/55AD4233/55F76932" Ref="Q1"  Part="1" 
AR Path="/55FAE325/55F76932" Ref="Q1"  Part="1" 
AR Path="/55FAEDFB/55F76932" Ref="Q1"  Part="1" 
F 0 "Q1" H 1800 1825 50  0000 L CNN
F 1 "2N7002" H 1800 1750 50  0000 L CNN
F 2 "" H 1800 1675 50  0000 L CIN
F 3 "" H 1550 1750 50  0000 L CNN
	1    1550 1750
	1    0    0    -1  
$EndComp
$Comp
L R Ri9
U 1 1 55F79A36
P 2300 1350
AR Path="/55AD4233/55F79A36" Ref="Ri9"  Part="1" 
AR Path="/55FAE325/55F79A36" Ref="Ri9"  Part="1" 
AR Path="/55FAEDFB/55F79A36" Ref="Ri9"  Part="1" 
F 0 "Ri9" V 2400 1350 50  0000 C CNN
F 1 "100" V 2300 1350 50  0000 C CNN
F 2 "" H 2300 1350 60  0001 C CNN
F 3 "" H 2300 1350 60  0001 C CNN
	1    2300 1350
	0    1    1    0   
$EndComp
Text HLabel 900  1800 0    60   Input ~ 0
In1
Text HLabel 2300 800  0    60   Input ~ 0
12Vdc
$Comp
L R Ri13
U 1 1 55F88C53
P 3550 1350
AR Path="/55AD4233/55F88C53" Ref="Ri13"  Part="1" 
AR Path="/55FAE325/55F88C53" Ref="Ri13"  Part="1" 
AR Path="/55FAEDFB/55F88C53" Ref="Ri13"  Part="1" 
F 0 "Ri13" V 3650 1350 50  0000 C CNN
F 1 "100" V 3550 1350 50  0000 C CNN
F 2 "" H 3550 1350 60  0001 C CNN
F 3 "" H 3550 1350 60  0001 C CNN
	1    3550 1350
	0    1    1    0   
$EndComp
Text HLabel 2300 900  0    60   Input ~ 0
5Vdc
$Comp
L GND #PWR026
U 1 1 55F8993D
P 3650 1850
AR Path="/55AD4233/55F8993D" Ref="#PWR026"  Part="1" 
AR Path="/55FAE325/55F8993D" Ref="#PWR026"  Part="1" 
AR Path="/55FAEDFB/55F8993D" Ref="#PWR026"  Part="1" 
F 0 "#PWR026" H 3650 1600 50  0001 C CNN
F 1 "GND" H 3650 1700 50  0000 C CNN
F 2 "" H 3650 1850 60  0000 C CNN
F 3 "" H 3650 1850 60  0000 C CNN
	1    3650 1850
	1    0    0    -1  
$EndComp
$Comp
L Relay_12V U5
U 1 1 55F75FC0
P 4350 1550
AR Path="/55AD4233/55F75FC0" Ref="U5"  Part="1" 
AR Path="/55FAE325/55F75FC0" Ref="U5"  Part="1" 
AR Path="/55FAEDFB/55F75FC0" Ref="U5"  Part="1" 
F 0 "U5" H 4650 1950 60  0000 C CNN
F 1 "Relay_12V" H 4200 1950 60  0000 C CNN
F 2 "" H 4400 1550 60  0000 C CNN
F 3 "" H 4400 1550 60  0000 C CNN
	1    4350 1550
	1    0    0    -1  
$EndComp
$Comp
L TB_1X2 J2
U 1 1 55F8BEE8
P 5650 1650
AR Path="/55AD4233/55F8BEE8" Ref="J2"  Part="1" 
AR Path="/55FAE325/55F8BEE8" Ref="J2"  Part="1" 
AR Path="/55FAEDFB/55F8BEE8" Ref="J2"  Part="1" 
F 0 "J2" H 5650 1950 60  0000 C CNN
F 1 "TB_1X2" H 5700 1350 60  0000 C CNN
F 2 "" H 5600 1700 60  0000 C CNN
F 3 "" H 5600 1700 60  0000 C CNN
	1    5650 1650
	-1   0    0    1   
$EndComp
$Comp
L GND #PWR027
U 1 1 55F8C33C
P 1650 3650
AR Path="/55AD4233/55F8C33C" Ref="#PWR027"  Part="1" 
AR Path="/55FAE325/55F8C33C" Ref="#PWR027"  Part="1" 
AR Path="/55FAEDFB/55F8C33C" Ref="#PWR027"  Part="1" 
F 0 "#PWR027" H 1650 3650 30  0001 C CNN
F 1 "GND" H 1650 3580 30  0001 C CNN
F 2 "" H 1650 3650 60  0001 C CNN
F 3 "" H 1650 3650 60  0001 C CNN
	1    1650 3650
	1    0    0    -1  
$EndComp
$Comp
L LED D10
U 1 1 55F8C342
P 1900 2950
AR Path="/55AD4233/55F8C342" Ref="D10"  Part="1" 
AR Path="/55FAE325/55F8C342" Ref="D10"  Part="1" 
AR Path="/55FAEDFB/55F8C342" Ref="D10"  Part="1" 
F 0 "D10" V 1900 3050 50  0000 C CNN
F 1 "LED" H 1900 2850 50  0000 C CNN
F 2 "" H 1900 2950 60  0001 C CNN
F 3 "" H 1900 2950 60  0001 C CNN
	1    1900 2950
	-1   0    0    1   
$EndComp
$Comp
L BUZ11 Q2
U 1 1 55F8C348
P 1550 3350
AR Path="/55AD4233/55F8C348" Ref="Q2"  Part="1" 
AR Path="/55FAE325/55F8C348" Ref="Q2"  Part="1" 
AR Path="/55FAEDFB/55F8C348" Ref="Q2"  Part="1" 
F 0 "Q2" H 1800 3425 50  0000 L CNN
F 1 "2N7002" H 1800 3350 50  0000 L CNN
F 2 "" H 1800 3275 50  0000 L CIN
F 3 "" H 1550 3350 50  0000 L CNN
	1    1550 3350
	1    0    0    -1  
$EndComp
$Comp
L R Ri10
U 1 1 55F8C34F
P 2300 2950
AR Path="/55AD4233/55F8C34F" Ref="Ri10"  Part="1" 
AR Path="/55FAE325/55F8C34F" Ref="Ri10"  Part="1" 
AR Path="/55FAEDFB/55F8C34F" Ref="Ri10"  Part="1" 
F 0 "Ri10" V 2400 2950 50  0000 C CNN
F 1 "100" V 2300 2950 50  0000 C CNN
F 2 "" H 2300 2950 60  0001 C CNN
F 3 "" H 2300 2950 60  0001 C CNN
	1    2300 2950
	0    1    1    0   
$EndComp
Text HLabel 900  3400 0    60   Input ~ 0
In2
$Comp
L R Ri14
U 1 1 55F8C35F
P 3550 2950
AR Path="/55AD4233/55F8C35F" Ref="Ri14"  Part="1" 
AR Path="/55FAE325/55F8C35F" Ref="Ri14"  Part="1" 
AR Path="/55FAEDFB/55F8C35F" Ref="Ri14"  Part="1" 
F 0 "Ri14" V 3650 2950 50  0000 C CNN
F 1 "100" V 3550 2950 50  0000 C CNN
F 2 "" H 3550 2950 60  0001 C CNN
F 3 "" H 3550 2950 60  0001 C CNN
	1    3550 2950
	0    1    1    0   
$EndComp
$Comp
L GND #PWR028
U 1 1 55F8C36B
P 3650 3450
AR Path="/55AD4233/55F8C36B" Ref="#PWR028"  Part="1" 
AR Path="/55FAE325/55F8C36B" Ref="#PWR028"  Part="1" 
AR Path="/55FAEDFB/55F8C36B" Ref="#PWR028"  Part="1" 
F 0 "#PWR028" H 3650 3200 50  0001 C CNN
F 1 "GND" H 3650 3300 50  0000 C CNN
F 2 "" H 3650 3450 60  0000 C CNN
F 3 "" H 3650 3450 60  0000 C CNN
	1    3650 3450
	1    0    0    -1  
$EndComp
$Comp
L Relay_12V U6
U 1 1 55F8C371
P 4350 3150
AR Path="/55AD4233/55F8C371" Ref="U6"  Part="1" 
AR Path="/55FAE325/55F8C371" Ref="U6"  Part="1" 
AR Path="/55FAEDFB/55F8C371" Ref="U6"  Part="1" 
F 0 "U6" H 4650 3550 60  0000 C CNN
F 1 "Relay_12V" H 4200 3550 60  0000 C CNN
F 2 "" H 4400 3150 60  0000 C CNN
F 3 "" H 4400 3150 60  0000 C CNN
	1    4350 3150
	1    0    0    -1  
$EndComp
$Comp
L TB_1X2 J3
U 1 1 55F8C37C
P 5650 3250
AR Path="/55AD4233/55F8C37C" Ref="J3"  Part="1" 
AR Path="/55FAE325/55F8C37C" Ref="J3"  Part="1" 
AR Path="/55FAEDFB/55F8C37C" Ref="J3"  Part="1" 
F 0 "J3" H 5650 3550 60  0000 C CNN
F 1 "TB_1X2" H 5700 2950 60  0000 C CNN
F 2 "" H 5600 3300 60  0000 C CNN
F 3 "" H 5600 3300 60  0000 C CNN
	1    5650 3250
	-1   0    0    1   
$EndComp
$Comp
L GND #PWR029
U 1 1 55F8C46A
P 1650 5250
AR Path="/55AD4233/55F8C46A" Ref="#PWR029"  Part="1" 
AR Path="/55FAE325/55F8C46A" Ref="#PWR029"  Part="1" 
AR Path="/55FAEDFB/55F8C46A" Ref="#PWR029"  Part="1" 
F 0 "#PWR029" H 1650 5250 30  0001 C CNN
F 1 "GND" H 1650 5180 30  0001 C CNN
F 2 "" H 1650 5250 60  0001 C CNN
F 3 "" H 1650 5250 60  0001 C CNN
	1    1650 5250
	1    0    0    -1  
$EndComp
$Comp
L LED D11
U 1 1 55F8C470
P 1900 4550
AR Path="/55AD4233/55F8C470" Ref="D11"  Part="1" 
AR Path="/55FAE325/55F8C470" Ref="D11"  Part="1" 
AR Path="/55FAEDFB/55F8C470" Ref="D11"  Part="1" 
F 0 "D11" V 1900 4650 50  0000 C CNN
F 1 "LED" H 1900 4450 50  0000 C CNN
F 2 "" H 1900 4550 60  0001 C CNN
F 3 "" H 1900 4550 60  0001 C CNN
	1    1900 4550
	-1   0    0    1   
$EndComp
$Comp
L BUZ11 Q3
U 1 1 55F8C476
P 1550 4950
AR Path="/55AD4233/55F8C476" Ref="Q3"  Part="1" 
AR Path="/55FAE325/55F8C476" Ref="Q3"  Part="1" 
AR Path="/55FAEDFB/55F8C476" Ref="Q3"  Part="1" 
F 0 "Q3" H 1800 5025 50  0000 L CNN
F 1 "2N7002" H 1800 4950 50  0000 L CNN
F 2 "" H 1800 4875 50  0000 L CIN
F 3 "" H 1550 4950 50  0000 L CNN
	1    1550 4950
	1    0    0    -1  
$EndComp
$Comp
L R Ri11
U 1 1 55F8C47D
P 2300 4550
AR Path="/55AD4233/55F8C47D" Ref="Ri11"  Part="1" 
AR Path="/55FAE325/55F8C47D" Ref="Ri11"  Part="1" 
AR Path="/55FAEDFB/55F8C47D" Ref="Ri11"  Part="1" 
F 0 "Ri11" V 2400 4550 50  0000 C CNN
F 1 "100" V 2300 4550 50  0000 C CNN
F 2 "" H 2300 4550 60  0001 C CNN
F 3 "" H 2300 4550 60  0001 C CNN
	1    2300 4550
	0    1    1    0   
$EndComp
Text HLabel 900  5000 0    60   Input ~ 0
In3
$Comp
L R Ri15
U 1 1 55F8C48D
P 3550 4550
AR Path="/55AD4233/55F8C48D" Ref="Ri15"  Part="1" 
AR Path="/55FAE325/55F8C48D" Ref="Ri15"  Part="1" 
AR Path="/55FAEDFB/55F8C48D" Ref="Ri15"  Part="1" 
F 0 "Ri15" V 3650 4550 50  0000 C CNN
F 1 "100" V 3550 4550 50  0000 C CNN
F 2 "" H 3550 4550 60  0001 C CNN
F 3 "" H 3550 4550 60  0001 C CNN
	1    3550 4550
	0    1    1    0   
$EndComp
$Comp
L GND #PWR030
U 1 1 55F8C499
P 3650 5050
AR Path="/55AD4233/55F8C499" Ref="#PWR030"  Part="1" 
AR Path="/55FAE325/55F8C499" Ref="#PWR030"  Part="1" 
AR Path="/55FAEDFB/55F8C499" Ref="#PWR030"  Part="1" 
F 0 "#PWR030" H 3650 4800 50  0001 C CNN
F 1 "GND" H 3650 4900 50  0000 C CNN
F 2 "" H 3650 5050 60  0000 C CNN
F 3 "" H 3650 5050 60  0000 C CNN
	1    3650 5050
	1    0    0    -1  
$EndComp
$Comp
L Relay_12V U7
U 1 1 55F8C49F
P 4350 4750
AR Path="/55AD4233/55F8C49F" Ref="U7"  Part="1" 
AR Path="/55FAE325/55F8C49F" Ref="U7"  Part="1" 
AR Path="/55FAEDFB/55F8C49F" Ref="U7"  Part="1" 
F 0 "U7" H 4650 5150 60  0000 C CNN
F 1 "Relay_12V" H 4200 5150 60  0000 C CNN
F 2 "" H 4400 4750 60  0000 C CNN
F 3 "" H 4400 4750 60  0000 C CNN
	1    4350 4750
	1    0    0    -1  
$EndComp
$Comp
L TB_1X2 J4
U 1 1 55F8C4AA
P 5650 4850
AR Path="/55AD4233/55F8C4AA" Ref="J4"  Part="1" 
AR Path="/55FAE325/55F8C4AA" Ref="J4"  Part="1" 
AR Path="/55FAEDFB/55F8C4AA" Ref="J4"  Part="1" 
F 0 "J4" H 5650 5150 60  0000 C CNN
F 1 "TB_1X2" H 5700 4550 60  0000 C CNN
F 2 "" H 5600 4900 60  0000 C CNN
F 3 "" H 5600 4900 60  0000 C CNN
	1    5650 4850
	-1   0    0    1   
$EndComp
$Comp
L GND #PWR031
U 1 1 55F8C69B
P 1650 6800
AR Path="/55AD4233/55F8C69B" Ref="#PWR031"  Part="1" 
AR Path="/55FAE325/55F8C69B" Ref="#PWR031"  Part="1" 
AR Path="/55FAEDFB/55F8C69B" Ref="#PWR031"  Part="1" 
F 0 "#PWR031" H 1650 6800 30  0001 C CNN
F 1 "GND" H 1650 6730 30  0001 C CNN
F 2 "" H 1650 6800 60  0001 C CNN
F 3 "" H 1650 6800 60  0001 C CNN
	1    1650 6800
	1    0    0    -1  
$EndComp
$Comp
L LED D12
U 1 1 55F8C6A1
P 1900 6100
AR Path="/55AD4233/55F8C6A1" Ref="D12"  Part="1" 
AR Path="/55FAE325/55F8C6A1" Ref="D12"  Part="1" 
AR Path="/55FAEDFB/55F8C6A1" Ref="D12"  Part="1" 
F 0 "D12" V 1900 6200 50  0000 C CNN
F 1 "LED" H 1900 6000 50  0000 C CNN
F 2 "" H 1900 6100 60  0001 C CNN
F 3 "" H 1900 6100 60  0001 C CNN
	1    1900 6100
	-1   0    0    1   
$EndComp
$Comp
L BUZ11 Q4
U 1 1 55F8C6A7
P 1550 6500
AR Path="/55AD4233/55F8C6A7" Ref="Q4"  Part="1" 
AR Path="/55FAE325/55F8C6A7" Ref="Q4"  Part="1" 
AR Path="/55FAEDFB/55F8C6A7" Ref="Q4"  Part="1" 
F 0 "Q4" H 1800 6575 50  0000 L CNN
F 1 "2N7002" H 1800 6500 50  0000 L CNN
F 2 "" H 1800 6425 50  0000 L CIN
F 3 "" H 1550 6500 50  0000 L CNN
	1    1550 6500
	1    0    0    -1  
$EndComp
$Comp
L R Ri12
U 1 1 55F8C6AE
P 2300 6100
AR Path="/55AD4233/55F8C6AE" Ref="Ri12"  Part="1" 
AR Path="/55FAE325/55F8C6AE" Ref="Ri12"  Part="1" 
AR Path="/55FAEDFB/55F8C6AE" Ref="Ri12"  Part="1" 
F 0 "Ri12" V 2400 6100 50  0000 C CNN
F 1 "100" V 2300 6100 50  0000 C CNN
F 2 "" H 2300 6100 60  0001 C CNN
F 3 "" H 2300 6100 60  0001 C CNN
	1    2300 6100
	0    1    1    0   
$EndComp
Text HLabel 900  6550 0    60   Input ~ 0
In4
$Comp
L R Ri16
U 1 1 55F8C6BE
P 3550 6100
AR Path="/55AD4233/55F8C6BE" Ref="Ri16"  Part="1" 
AR Path="/55FAE325/55F8C6BE" Ref="Ri16"  Part="1" 
AR Path="/55FAEDFB/55F8C6BE" Ref="Ri16"  Part="1" 
F 0 "Ri16" V 3650 6100 50  0000 C CNN
F 1 "100" V 3550 6100 50  0000 C CNN
F 2 "" H 3550 6100 60  0001 C CNN
F 3 "" H 3550 6100 60  0001 C CNN
	1    3550 6100
	0    1    1    0   
$EndComp
$Comp
L GND #PWR032
U 1 1 55F8C6CA
P 3650 6600
AR Path="/55AD4233/55F8C6CA" Ref="#PWR032"  Part="1" 
AR Path="/55FAE325/55F8C6CA" Ref="#PWR032"  Part="1" 
AR Path="/55FAEDFB/55F8C6CA" Ref="#PWR032"  Part="1" 
F 0 "#PWR032" H 3650 6350 50  0001 C CNN
F 1 "GND" H 3650 6450 50  0000 C CNN
F 2 "" H 3650 6600 60  0000 C CNN
F 3 "" H 3650 6600 60  0000 C CNN
	1    3650 6600
	1    0    0    -1  
$EndComp
$Comp
L Relay_12V U8
U 1 1 55F8C6D0
P 4350 6300
AR Path="/55AD4233/55F8C6D0" Ref="U8"  Part="1" 
AR Path="/55FAE325/55F8C6D0" Ref="U8"  Part="1" 
AR Path="/55FAEDFB/55F8C6D0" Ref="U8"  Part="1" 
F 0 "U8" H 4650 6700 60  0000 C CNN
F 1 "Relay_12V" H 4200 6700 60  0000 C CNN
F 2 "" H 4400 6300 60  0000 C CNN
F 3 "" H 4400 6300 60  0000 C CNN
	1    4350 6300
	1    0    0    -1  
$EndComp
$Comp
L TB_1X2 J5
U 1 1 55F8C6DB
P 5650 6400
AR Path="/55AD4233/55F8C6DB" Ref="J5"  Part="1" 
AR Path="/55FAE325/55F8C6DB" Ref="J5"  Part="1" 
AR Path="/55FAEDFB/55F8C6DB" Ref="J5"  Part="1" 
F 0 "J5" H 5650 6700 60  0000 C CNN
F 1 "TB_1X2" H 5700 6100 60  0000 C CNN
F 2 "" H 5600 6450 60  0000 C CNN
F 3 "" H 5600 6450 60  0000 C CNN
	1    5650 6400
	-1   0    0    1   
$EndComp
$Comp
L GND #PWR033
U 1 1 55F8D552
P 6900 1750
AR Path="/55AD4233/55F8D552" Ref="#PWR033"  Part="1" 
AR Path="/55FAE325/55F8D552" Ref="#PWR033"  Part="1" 
AR Path="/55FAEDFB/55F8D552" Ref="#PWR033"  Part="1" 
F 0 "#PWR033" H 6900 1750 30  0001 C CNN
F 1 "GND" H 6900 1680 30  0001 C CNN
F 2 "" H 6900 1750 60  0001 C CNN
F 3 "" H 6900 1750 60  0001 C CNN
	1    6900 1750
	1    0    0    -1  
$EndComp
$Comp
L LED D13
U 1 1 55F8D558
P 7150 1050
AR Path="/55AD4233/55F8D558" Ref="D13"  Part="1" 
AR Path="/55FAE325/55F8D558" Ref="D13"  Part="1" 
AR Path="/55FAEDFB/55F8D558" Ref="D13"  Part="1" 
F 0 "D13" V 7150 1150 50  0000 C CNN
F 1 "LED" H 7150 950 50  0000 C CNN
F 2 "" H 7150 1050 60  0001 C CNN
F 3 "" H 7150 1050 60  0001 C CNN
	1    7150 1050
	-1   0    0    1   
$EndComp
$Comp
L BUZ11 Q5
U 1 1 55F8D55E
P 6800 1450
AR Path="/55AD4233/55F8D55E" Ref="Q5"  Part="1" 
AR Path="/55FAE325/55F8D55E" Ref="Q5"  Part="1" 
AR Path="/55FAEDFB/55F8D55E" Ref="Q5"  Part="1" 
F 0 "Q5" H 7050 1525 50  0000 L CNN
F 1 "2N7002" H 7050 1450 50  0000 L CNN
F 2 "" H 7050 1375 50  0000 L CIN
F 3 "" H 6800 1450 50  0000 L CNN
	1    6800 1450
	1    0    0    -1  
$EndComp
Text HLabel 6150 1500 0    60   Input ~ 0
In5
$Comp
L R Ri21
U 1 1 55F8D575
P 8950 1050
AR Path="/55AD4233/55F8D575" Ref="Ri21"  Part="1" 
AR Path="/55FAE325/55F8D575" Ref="Ri21"  Part="1" 
AR Path="/55FAEDFB/55F8D575" Ref="Ri21"  Part="1" 
F 0 "Ri21" V 9050 1050 50  0000 C CNN
F 1 "100" V 8950 1050 50  0000 C CNN
F 2 "" H 8950 1050 60  0001 C CNN
F 3 "" H 8950 1050 60  0001 C CNN
	1    8950 1050
	0    1    1    0   
$EndComp
$Comp
L GND #PWR034
U 1 1 55F8D581
P 9050 1500
AR Path="/55AD4233/55F8D581" Ref="#PWR034"  Part="1" 
AR Path="/55FAE325/55F8D581" Ref="#PWR034"  Part="1" 
AR Path="/55FAEDFB/55F8D581" Ref="#PWR034"  Part="1" 
F 0 "#PWR034" H 9050 1250 50  0001 C CNN
F 1 "GND" H 9050 1350 50  0000 C CNN
F 2 "" H 9050 1500 60  0000 C CNN
F 3 "" H 9050 1500 60  0000 C CNN
	1    9050 1500
	1    0    0    -1  
$EndComp
$Comp
L Relay_12V U13
U 1 1 55F8D587
P 9750 1250
AR Path="/55AD4233/55F8D587" Ref="U13"  Part="1" 
AR Path="/55FAE325/55F8D587" Ref="U13"  Part="1" 
AR Path="/55FAEDFB/55F8D587" Ref="U13"  Part="1" 
F 0 "U13" H 10050 1650 60  0000 C CNN
F 1 "Relay_12V" H 9600 1650 60  0000 C CNN
F 2 "" H 9800 1250 60  0000 C CNN
F 3 "" H 9800 1250 60  0000 C CNN
	1    9750 1250
	1    0    0    -1  
$EndComp
$Comp
L GND #PWR035
U 1 1 55F8D599
P 6900 3350
AR Path="/55AD4233/55F8D599" Ref="#PWR035"  Part="1" 
AR Path="/55FAE325/55F8D599" Ref="#PWR035"  Part="1" 
AR Path="/55FAEDFB/55F8D599" Ref="#PWR035"  Part="1" 
F 0 "#PWR035" H 6900 3350 30  0001 C CNN
F 1 "GND" H 6900 3280 30  0001 C CNN
F 2 "" H 6900 3350 60  0001 C CNN
F 3 "" H 6900 3350 60  0001 C CNN
	1    6900 3350
	1    0    0    -1  
$EndComp
$Comp
L LED D14
U 1 1 55F8D59F
P 7150 2650
AR Path="/55AD4233/55F8D59F" Ref="D14"  Part="1" 
AR Path="/55FAE325/55F8D59F" Ref="D14"  Part="1" 
AR Path="/55FAEDFB/55F8D59F" Ref="D14"  Part="1" 
F 0 "D14" V 7150 2750 50  0000 C CNN
F 1 "LED" H 7150 2550 50  0000 C CNN
F 2 "" H 7150 2650 60  0001 C CNN
F 3 "" H 7150 2650 60  0001 C CNN
	1    7150 2650
	-1   0    0    1   
$EndComp
$Comp
L BUZ11 Q6
U 1 1 55F8D5A5
P 6800 3050
AR Path="/55AD4233/55F8D5A5" Ref="Q6"  Part="1" 
AR Path="/55FAE325/55F8D5A5" Ref="Q6"  Part="1" 
AR Path="/55FAEDFB/55F8D5A5" Ref="Q6"  Part="1" 
F 0 "Q6" H 7050 3125 50  0000 L CNN
F 1 "2N7002" H 7050 3050 50  0000 L CNN
F 2 "" H 7050 2975 50  0000 L CIN
F 3 "" H 6800 3050 50  0000 L CNN
	1    6800 3050
	1    0    0    -1  
$EndComp
$Comp
L R Ri18
U 1 1 55F8D5AC
P 7550 2650
AR Path="/55AD4233/55F8D5AC" Ref="Ri18"  Part="1" 
AR Path="/55FAE325/55F8D5AC" Ref="Ri18"  Part="1" 
AR Path="/55FAEDFB/55F8D5AC" Ref="Ri18"  Part="1" 
F 0 "Ri18" V 7650 2650 50  0000 C CNN
F 1 "100" V 7550 2650 50  0000 C CNN
F 2 "" H 7550 2650 60  0001 C CNN
F 3 "" H 7550 2650 60  0001 C CNN
	1    7550 2650
	0    1    1    0   
$EndComp
Text HLabel 6150 3100 0    60   Input ~ 0
In6
$Comp
L R Ri22
U 1 1 55F8D5BC
P 8950 2650
AR Path="/55AD4233/55F8D5BC" Ref="Ri22"  Part="1" 
AR Path="/55FAE325/55F8D5BC" Ref="Ri22"  Part="1" 
AR Path="/55FAEDFB/55F8D5BC" Ref="Ri22"  Part="1" 
F 0 "Ri22" V 9050 2650 50  0000 C CNN
F 1 "100" V 8950 2650 50  0000 C CNN
F 2 "" H 8950 2650 60  0001 C CNN
F 3 "" H 8950 2650 60  0001 C CNN
	1    8950 2650
	0    1    1    0   
$EndComp
$Comp
L GND #PWR036
U 1 1 55F8D5C4
P 9050 3150
AR Path="/55AD4233/55F8D5C4" Ref="#PWR036"  Part="1" 
AR Path="/55FAE325/55F8D5C4" Ref="#PWR036"  Part="1" 
AR Path="/55FAEDFB/55F8D5C4" Ref="#PWR036"  Part="1" 
F 0 "#PWR036" H 9050 2900 50  0001 C CNN
F 1 "GND" H 9050 3000 50  0000 C CNN
F 2 "" H 9050 3150 60  0000 C CNN
F 3 "" H 9050 3150 60  0000 C CNN
	1    9050 3150
	1    0    0    -1  
$EndComp
$Comp
L Relay_12V U14
U 1 1 55F8D5CA
P 9750 2850
AR Path="/55AD4233/55F8D5CA" Ref="U14"  Part="1" 
AR Path="/55FAE325/55F8D5CA" Ref="U14"  Part="1" 
AR Path="/55FAEDFB/55F8D5CA" Ref="U14"  Part="1" 
F 0 "U14" H 10050 3250 60  0000 C CNN
F 1 "Relay_12V" H 9600 3250 60  0000 C CNN
F 2 "" H 9800 2850 60  0000 C CNN
F 3 "" H 9800 2850 60  0000 C CNN
	1    9750 2850
	1    0    0    -1  
$EndComp
$Comp
L GND #PWR037
U 1 1 55F8D5DC
P 6900 4950
AR Path="/55AD4233/55F8D5DC" Ref="#PWR037"  Part="1" 
AR Path="/55FAE325/55F8D5DC" Ref="#PWR037"  Part="1" 
AR Path="/55FAEDFB/55F8D5DC" Ref="#PWR037"  Part="1" 
F 0 "#PWR037" H 6900 4950 30  0001 C CNN
F 1 "GND" H 6900 4880 30  0001 C CNN
F 2 "" H 6900 4950 60  0001 C CNN
F 3 "" H 6900 4950 60  0001 C CNN
	1    6900 4950
	1    0    0    -1  
$EndComp
$Comp
L LED D15
U 1 1 55F8D5E2
P 7150 4250
AR Path="/55AD4233/55F8D5E2" Ref="D15"  Part="1" 
AR Path="/55FAE325/55F8D5E2" Ref="D15"  Part="1" 
AR Path="/55FAEDFB/55F8D5E2" Ref="D15"  Part="1" 
F 0 "D15" V 7150 4350 50  0000 C CNN
F 1 "LED" H 7150 4150 50  0000 C CNN
F 2 "" H 7150 4250 60  0001 C CNN
F 3 "" H 7150 4250 60  0001 C CNN
	1    7150 4250
	-1   0    0    1   
$EndComp
$Comp
L BUZ11 Q7
U 1 1 55F8D5E8
P 6800 4650
AR Path="/55AD4233/55F8D5E8" Ref="Q7"  Part="1" 
AR Path="/55FAE325/55F8D5E8" Ref="Q7"  Part="1" 
AR Path="/55FAEDFB/55F8D5E8" Ref="Q7"  Part="1" 
F 0 "Q7" H 7050 4725 50  0000 L CNN
F 1 "2N7002" H 7050 4650 50  0000 L CNN
F 2 "" H 7050 4575 50  0000 L CIN
F 3 "" H 6800 4650 50  0000 L CNN
	1    6800 4650
	1    0    0    -1  
$EndComp
$Comp
L R Ri19
U 1 1 55F8D5EF
P 7550 4250
AR Path="/55AD4233/55F8D5EF" Ref="Ri19"  Part="1" 
AR Path="/55FAE325/55F8D5EF" Ref="Ri19"  Part="1" 
AR Path="/55FAEDFB/55F8D5EF" Ref="Ri19"  Part="1" 
F 0 "Ri19" V 7650 4250 50  0000 C CNN
F 1 "100" V 7550 4250 50  0000 C CNN
F 2 "" H 7550 4250 60  0001 C CNN
F 3 "" H 7550 4250 60  0001 C CNN
	1    7550 4250
	0    1    1    0   
$EndComp
Text HLabel 6150 4700 0    60   Input ~ 0
In7
$Comp
L R Ri23
U 1 1 55F8D5FF
P 8950 4250
AR Path="/55AD4233/55F8D5FF" Ref="Ri23"  Part="1" 
AR Path="/55FAE325/55F8D5FF" Ref="Ri23"  Part="1" 
AR Path="/55FAEDFB/55F8D5FF" Ref="Ri23"  Part="1" 
F 0 "Ri23" V 9050 4250 50  0000 C CNN
F 1 "100" V 8950 4250 50  0000 C CNN
F 2 "" H 8950 4250 60  0001 C CNN
F 3 "" H 8950 4250 60  0001 C CNN
	1    8950 4250
	0    1    1    0   
$EndComp
$Comp
L GND #PWR038
U 1 1 55F8D607
P 9050 4750
AR Path="/55AD4233/55F8D607" Ref="#PWR038"  Part="1" 
AR Path="/55FAE325/55F8D607" Ref="#PWR038"  Part="1" 
AR Path="/55FAEDFB/55F8D607" Ref="#PWR038"  Part="1" 
F 0 "#PWR038" H 9050 4500 50  0001 C CNN
F 1 "GND" H 9050 4600 50  0000 C CNN
F 2 "" H 9050 4750 60  0000 C CNN
F 3 "" H 9050 4750 60  0000 C CNN
	1    9050 4750
	1    0    0    -1  
$EndComp
$Comp
L Relay_12V U15
U 1 1 55F8D60D
P 9750 4450
AR Path="/55AD4233/55F8D60D" Ref="U15"  Part="1" 
AR Path="/55FAE325/55F8D60D" Ref="U15"  Part="1" 
AR Path="/55FAEDFB/55F8D60D" Ref="U15"  Part="1" 
F 0 "U15" H 10050 4850 60  0000 C CNN
F 1 "Relay_12V" H 9600 4850 60  0000 C CNN
F 2 "" H 9800 4450 60  0000 C CNN
F 3 "" H 9800 4450 60  0000 C CNN
	1    9750 4450
	1    0    0    -1  
$EndComp
$Comp
L GND #PWR039
U 1 1 55F8D61F
P 6900 6450
AR Path="/55AD4233/55F8D61F" Ref="#PWR039"  Part="1" 
AR Path="/55FAE325/55F8D61F" Ref="#PWR039"  Part="1" 
AR Path="/55FAEDFB/55F8D61F" Ref="#PWR039"  Part="1" 
F 0 "#PWR039" H 6900 6450 30  0001 C CNN
F 1 "GND" H 6900 6380 30  0001 C CNN
F 2 "" H 6900 6450 60  0001 C CNN
F 3 "" H 6900 6450 60  0001 C CNN
	1    6900 6450
	1    0    0    -1  
$EndComp
$Comp
L LED D16
U 1 1 55F8D625
P 7150 5800
AR Path="/55AD4233/55F8D625" Ref="D16"  Part="1" 
AR Path="/55FAE325/55F8D625" Ref="D16"  Part="1" 
AR Path="/55FAEDFB/55F8D625" Ref="D16"  Part="1" 
F 0 "D16" V 7150 5900 50  0000 C CNN
F 1 "LED" H 7150 5700 50  0000 C CNN
F 2 "" H 7150 5800 60  0001 C CNN
F 3 "" H 7150 5800 60  0001 C CNN
	1    7150 5800
	-1   0    0    1   
$EndComp
$Comp
L BUZ11 Q8
U 1 1 55F8D62B
P 6800 6200
AR Path="/55AD4233/55F8D62B" Ref="Q8"  Part="1" 
AR Path="/55FAE325/55F8D62B" Ref="Q8"  Part="1" 
AR Path="/55FAEDFB/55F8D62B" Ref="Q8"  Part="1" 
F 0 "Q8" H 7050 6275 50  0000 L CNN
F 1 "2N7002" H 7050 6200 50  0000 L CNN
F 2 "" H 7050 6125 50  0000 L CIN
F 3 "" H 6800 6200 50  0000 L CNN
	1    6800 6200
	1    0    0    -1  
$EndComp
$Comp
L R Ri20
U 1 1 55F8D632
P 7550 5800
AR Path="/55AD4233/55F8D632" Ref="Ri20"  Part="1" 
AR Path="/55FAE325/55F8D632" Ref="Ri20"  Part="1" 
AR Path="/55FAEDFB/55F8D632" Ref="Ri20"  Part="1" 
F 0 "Ri20" V 7650 5800 50  0000 C CNN
F 1 "100" V 7550 5800 50  0000 C CNN
F 2 "" H 7550 5800 60  0001 C CNN
F 3 "" H 7550 5800 60  0001 C CNN
	1    7550 5800
	0    1    1    0   
$EndComp
Text HLabel 6150 6250 0    60   Input ~ 0
In8
$Comp
L R Ri24
U 1 1 55F8D642
P 8950 5800
AR Path="/55AD4233/55F8D642" Ref="Ri24"  Part="1" 
AR Path="/55FAE325/55F8D642" Ref="Ri24"  Part="1" 
AR Path="/55FAEDFB/55F8D642" Ref="Ri24"  Part="1" 
F 0 "Ri24" V 9050 5800 50  0000 C CNN
F 1 "100" V 8950 5800 50  0000 C CNN
F 2 "" H 8950 5800 60  0001 C CNN
F 3 "" H 8950 5800 60  0001 C CNN
	1    8950 5800
	0    1    1    0   
$EndComp
$Comp
L GND #PWR040
U 1 1 55F8D64A
P 9050 6300
AR Path="/55AD4233/55F8D64A" Ref="#PWR040"  Part="1" 
AR Path="/55FAE325/55F8D64A" Ref="#PWR040"  Part="1" 
AR Path="/55FAEDFB/55F8D64A" Ref="#PWR040"  Part="1" 
F 0 "#PWR040" H 9050 6050 50  0001 C CNN
F 1 "GND" H 9050 6150 50  0000 C CNN
F 2 "" H 9050 6300 60  0000 C CNN
F 3 "" H 9050 6300 60  0000 C CNN
	1    9050 6300
	1    0    0    -1  
$EndComp
$Comp
L Relay_12V U16
U 1 1 55F8D650
P 9750 6000
AR Path="/55AD4233/55F8D650" Ref="U16"  Part="1" 
AR Path="/55FAE325/55F8D650" Ref="U16"  Part="1" 
AR Path="/55FAEDFB/55F8D650" Ref="U16"  Part="1" 
F 0 "U16" H 10050 6400 60  0000 C CNN
F 1 "Relay_12V" H 9600 6400 60  0000 C CNN
F 2 "" H 9800 6000 60  0000 C CNN
F 3 "" H 9800 6000 60  0000 C CNN
	1    9750 6000
	1    0    0    -1  
$EndComp
$Comp
L R Ri17
U 1 1 55F8D565
P 7550 1050
AR Path="/55AD4233/55F8D565" Ref="Ri17"  Part="1" 
AR Path="/55FAE325/55F8D565" Ref="Ri17"  Part="1" 
AR Path="/55FAEDFB/55F8D565" Ref="Ri17"  Part="1" 
F 0 "Ri17" V 7650 1050 50  0000 C CNN
F 1 "100" V 7550 1050 50  0000 C CNN
F 2 "" H 7550 1050 60  0001 C CNN
F 3 "" H 7550 1050 60  0001 C CNN
	1    7550 1050
	0    1    1    0   
$EndComp
$Comp
L TB_1X2 J6
U 1 1 55F8D592
P 11050 1350
AR Path="/55AD4233/55F8D592" Ref="J6"  Part="1" 
AR Path="/55FAE325/55F8D592" Ref="J6"  Part="1" 
AR Path="/55FAEDFB/55F8D592" Ref="J6"  Part="1" 
F 0 "J6" H 11050 1650 60  0000 C CNN
F 1 "TB_1X2" H 11100 1050 60  0000 C CNN
F 2 "" H 11000 1400 60  0000 C CNN
F 3 "" H 11000 1400 60  0000 C CNN
	1    11050 1350
	-1   0    0    1   
$EndComp
$Comp
L TB_1X2 J7
U 1 1 55F965F7
P 11050 2950
AR Path="/55AD4233/55F965F7" Ref="J7"  Part="1" 
AR Path="/55FAE325/55F965F7" Ref="J7"  Part="1" 
AR Path="/55FAEDFB/55F965F7" Ref="J7"  Part="1" 
F 0 "J7" H 11050 3250 60  0000 C CNN
F 1 "TB_1X2" H 11100 2650 60  0000 C CNN
F 2 "" H 11000 3000 60  0000 C CNN
F 3 "" H 11000 3000 60  0000 C CNN
	1    11050 2950
	-1   0    0    1   
$EndComp
$Comp
L TB_1X2 J8
U 1 1 55F97B81
P 11050 4550
AR Path="/55AD4233/55F97B81" Ref="J8"  Part="1" 
AR Path="/55FAE325/55F97B81" Ref="J8"  Part="1" 
AR Path="/55FAEDFB/55F97B81" Ref="J8"  Part="1" 
F 0 "J8" H 11050 4850 60  0000 C CNN
F 1 "TB_1X2" H 11100 4250 60  0000 C CNN
F 2 "" H 11000 4600 60  0000 C CNN
F 3 "" H 11000 4600 60  0000 C CNN
	1    11050 4550
	-1   0    0    1   
$EndComp
$Comp
L TB_1X2 J9
U 1 1 55F97E51
P 11050 6100
AR Path="/55AD4233/55F97E51" Ref="J9"  Part="1" 
AR Path="/55FAE325/55F97E51" Ref="J9"  Part="1" 
AR Path="/55FAEDFB/55F97E51" Ref="J9"  Part="1" 
F 0 "J9" H 11050 6400 60  0000 C CNN
F 1 "TB_1X2" H 11100 5800 60  0000 C CNN
F 2 "" H 11000 6150 60  0000 C CNN
F 3 "" H 11000 6150 60  0000 C CNN
	1    11050 6100
	-1   0    0    1   
$EndComp
$Comp
L TB_1X2 J1
U 1 1 55F9CEB2
P 950 700
AR Path="/55AD4233/55F9CEB2" Ref="J1"  Part="1" 
AR Path="/55FAE325/55F9CEB2" Ref="J1"  Part="1" 
AR Path="/55FAEDFB/55F9CEB2" Ref="J1"  Part="1" 
F 0 "J1" H 950 1000 60  0000 C CNN
F 1 "TB_1X2" H 1000 400 60  0000 C CNN
F 2 "" H 900 750 60  0000 C CNN
F 3 "" H 900 750 60  0000 C CNN
	1    950  700 
	1    0    0    -1  
$EndComp
Text Label 1300 600  0    60   ~ 0
220Vac
Text Label 1300 800  0    60   ~ 0
AC_GND
Wire Wire Line
	900  1800 1350 1800
Wire Wire Line
	1650 1950 1650 2050
Wire Wire Line
	1650 1550 1650 1350
Wire Wire Line
	1650 1350 1700 1350
Wire Wire Line
	2100 1350 2150 1350
Wire Wire Line
	3250 1350 3400 1350
Wire Wire Line
	3350 800  2300 800 
Wire Wire Line
	2650 1350 2450 1350
Wire Wire Line
	2300 900  6550 900 
Wire Wire Line
	2600 900  2600 5900
Wire Wire Line
	2600 1150 2650 1150
Wire Wire Line
	1300 600  10400 600 
Wire Wire Line
	3700 1350 3750 1350
Wire Wire Line
	900  3400 1350 3400
Wire Wire Line
	1650 3550 1650 3650
Wire Wire Line
	1650 3150 1650 2950
Wire Wire Line
	1650 2950 1700 2950
Wire Wire Line
	2100 2950 2150 2950
Wire Wire Line
	3250 2950 3400 2950
Wire Wire Line
	2650 2950 2450 2950
Wire Wire Line
	3700 2950 3750 2950
Wire Wire Line
	900  5000 1350 5000
Wire Wire Line
	1650 5150 1650 5250
Wire Wire Line
	1650 4750 1650 4550
Wire Wire Line
	1650 4550 1700 4550
Wire Wire Line
	2100 4550 2150 4550
Wire Wire Line
	3250 4550 3400 4550
Wire Wire Line
	2650 4550 2450 4550
Wire Wire Line
	3700 4550 3750 4550
Wire Wire Line
	900  6550 1350 6550
Wire Wire Line
	1650 6700 1650 6800
Wire Wire Line
	1650 6300 1650 6100
Wire Wire Line
	1650 6100 1700 6100
Wire Wire Line
	2100 6100 2150 6100
Wire Wire Line
	3250 6100 3400 6100
Wire Wire Line
	2650 6100 2450 6100
Wire Wire Line
	3700 6100 3750 6100
Wire Wire Line
	6150 1500 6600 1500
Wire Wire Line
	6900 1650 6900 1750
Wire Wire Line
	6900 1250 6900 1050
Wire Wire Line
	6900 1050 6950 1050
Wire Wire Line
	7350 1050 7400 1050
Wire Wire Line
	8500 1050 8800 1050
Wire Wire Line
	7900 1050 7700 1050
Wire Wire Line
	9100 1050 9150 1050
Wire Wire Line
	10300 1250 10700 1250
Wire Wire Line
	6150 3100 6600 3100
Wire Wire Line
	6900 3250 6900 3350
Wire Wire Line
	6900 2850 6900 2650
Wire Wire Line
	6900 2650 6950 2650
Wire Wire Line
	7350 2650 7400 2650
Wire Wire Line
	8500 2650 8800 2650
Wire Wire Line
	7900 2650 7700 2650
Wire Wire Line
	9100 2650 9150 2650
Wire Wire Line
	10300 2850 10700 2850
Wire Wire Line
	6150 4700 6600 4700
Wire Wire Line
	6900 4850 6900 4950
Wire Wire Line
	6900 4450 6900 4250
Wire Wire Line
	6900 4250 6950 4250
Wire Wire Line
	7350 4250 7400 4250
Wire Wire Line
	8450 4250 8800 4250
Wire Wire Line
	7900 4250 7700 4250
Wire Wire Line
	9100 4250 9150 4250
Wire Wire Line
	10300 4450 10700 4450
Wire Wire Line
	6150 6250 6600 6250
Wire Wire Line
	6900 6400 6900 6450
Wire Wire Line
	6900 6000 6900 5800
Wire Wire Line
	6900 5800 6950 5800
Wire Wire Line
	7350 5800 7400 5800
Wire Wire Line
	8500 5800 8800 5800
Wire Wire Line
	7900 5800 7700 5800
Wire Wire Line
	9100 5800 9150 5800
Wire Wire Line
	10300 6000 10700 6000
Wire Wire Line
	7900 2450 7800 2450
Wire Wire Line
	7750 850  7900 850 
Wire Wire Line
	6550 900  6550 850 
Wire Wire Line
	6550 850  7850 850 
Connection ~ 2600 900 
Wire Wire Line
	10400 5800 10300 5800
Wire Wire Line
	10400 600  10400 5800
Wire Wire Line
	10300 1050 10400 1050
Connection ~ 10400 1050
Wire Wire Line
	10300 2650 10400 2650
Connection ~ 10400 2650
Wire Wire Line
	10300 4250 10400 4250
Connection ~ 10400 4250
Wire Wire Line
	10700 1450 10550 1450
Wire Wire Line
	10550 700  10550 6200
Wire Wire Line
	10550 3050 10700 3050
Wire Wire Line
	10550 6200 10700 6200
Connection ~ 10550 3050
Wire Wire Line
	10700 4650 10550 4650
Connection ~ 10550 4650
Connection ~ 10550 1450
Wire Wire Line
	1300 800  1700 800 
Wire Wire Line
	1700 800  1700 700 
Wire Wire Line
	7800 4050 7900 4050
Connection ~ 7800 2450
Wire Wire Line
	7800 5600 7900 5600
Connection ~ 7800 4050
Wire Wire Line
	2600 2750 2650 2750
Connection ~ 2600 1150
Wire Wire Line
	2600 4350 2650 4350
Connection ~ 2600 2750
Wire Wire Line
	2600 5900 2650 5900
Connection ~ 2600 4350
Wire Wire Line
	1700 700  10550 700 
Wire Wire Line
	5050 6100 4900 6100
Wire Wire Line
	5050 600  5050 6100
Wire Wire Line
	5050 4550 4900 4550
Wire Wire Line
	5050 1350 4900 1350
Connection ~ 5050 4550
Wire Wire Line
	4900 2950 5050 2950
Connection ~ 5050 2950
Connection ~ 5050 600 
Connection ~ 5050 1350
Wire Wire Line
	4900 1550 5300 1550
Wire Wire Line
	4900 3150 5300 3150
Wire Wire Line
	4900 4750 5300 4750
Wire Wire Line
	4900 6300 5300 6300
Wire Wire Line
	5200 6500 5300 6500
Wire Wire Line
	5200 700  5200 6500
Wire Wire Line
	5200 4950 5300 4950
Wire Wire Line
	5200 1750 5300 1750
Connection ~ 5200 4950
Wire Wire Line
	5300 3350 5200 3350
Connection ~ 5200 3350
Connection ~ 5200 700 
Connection ~ 5200 1750
$Comp
L OPTO-DARLINGTON U1
U 1 1 55FAFA12
P 2950 1250
AR Path="/55AD4233/55FAFA12" Ref="U1"  Part="1" 
AR Path="/55FAE325/55FAFA12" Ref="U1"  Part="1" 
AR Path="/55FAEDFB/55FAFA12" Ref="U1"  Part="1" 
F 0 "U1" H 2750 1450 50  0000 L CNN
F 1 "OPTO-DARLINGTON" H 2750 1050 50  0000 L CNN
F 2 "" H 2750 1050 50  0000 L CIN
F 3 "" H 2950 1225 50  0000 L CNN
	1    2950 1250
	1    0    0    -1  
$EndComp
$Comp
L OPTO-DARLINGTON U2
U 1 1 55FB112B
P 2950 2850
AR Path="/55AD4233/55FB112B" Ref="U2"  Part="1" 
AR Path="/55FAE325/55FB112B" Ref="U2"  Part="1" 
AR Path="/55FAEDFB/55FB112B" Ref="U2"  Part="1" 
F 0 "U2" H 2750 3050 50  0000 L CNN
F 1 "OPTO-DARLINGTON" H 2750 2650 50  0000 L CNN
F 2 "" H 2750 2650 50  0000 L CIN
F 3 "" H 2950 2825 50  0000 L CNN
	1    2950 2850
	1    0    0    -1  
$EndComp
$Comp
L OPTO-DARLINGTON U3
U 1 1 55FB144B
P 2950 4450
AR Path="/55AD4233/55FB144B" Ref="U3"  Part="1" 
AR Path="/55FAE325/55FB144B" Ref="U3"  Part="1" 
AR Path="/55FAEDFB/55FB144B" Ref="U3"  Part="1" 
F 0 "U3" H 2750 4650 50  0000 L CNN
F 1 "OPTO-DARLINGTON" H 2750 4250 50  0000 L CNN
F 2 "" H 2750 4250 50  0000 L CIN
F 3 "" H 2950 4425 50  0000 L CNN
	1    2950 4450
	1    0    0    -1  
$EndComp
$Comp
L OPTO-DARLINGTON U4
U 1 1 55FB14D3
P 2950 6000
AR Path="/55AD4233/55FB14D3" Ref="U4"  Part="1" 
AR Path="/55FAE325/55FB14D3" Ref="U4"  Part="1" 
AR Path="/55FAEDFB/55FB14D3" Ref="U4"  Part="1" 
F 0 "U4" H 2750 6200 50  0000 L CNN
F 1 "OPTO-DARLINGTON" H 2750 5800 50  0000 L CNN
F 2 "" H 2750 5800 50  0000 L CIN
F 3 "" H 2950 5975 50  0000 L CNN
	1    2950 6000
	1    0    0    -1  
$EndComp
$Comp
L OPTO-DARLINGTON U10
U 1 1 55FB210F
P 8200 950
AR Path="/55AD4233/55FB210F" Ref="U10"  Part="1" 
AR Path="/55FAE325/55FB210F" Ref="U10"  Part="1" 
AR Path="/55FAEDFB/55FB210F" Ref="U10"  Part="1" 
F 0 "U10" H 8000 1150 50  0000 L CNN
F 1 "OPTO-DARLINGTON" H 8000 750 50  0000 L CNN
F 2 "" H 8000 750 50  0000 L CIN
F 3 "" H 8200 925 50  0000 L CNN
	1    8200 950 
	1    0    0    -1  
$EndComp
$Comp
L OPTO-DARLINGTON U11
U 1 1 55FB21AB
P 8200 2550
AR Path="/55AD4233/55FB21AB" Ref="U11"  Part="1" 
AR Path="/55FAE325/55FB21AB" Ref="U11"  Part="1" 
AR Path="/55FAEDFB/55FB21AB" Ref="U11"  Part="1" 
F 0 "U11" H 8000 2750 50  0000 L CNN
F 1 "OPTO-DARLINGTON" H 8000 2350 50  0000 L CNN
F 2 "" H 8000 2350 50  0000 L CIN
F 3 "" H 8200 2525 50  0000 L CNN
	1    8200 2550
	1    0    0    -1  
$EndComp
$Comp
L OPTO-DARLINGTON U9
U 1 1 55FB2395
P 8150 4150
AR Path="/55AD4233/55FB2395" Ref="U9"  Part="1" 
AR Path="/55FAE325/55FB2395" Ref="U9"  Part="1" 
AR Path="/55FAEDFB/55FB2395" Ref="U9"  Part="1" 
F 0 "U9" H 7950 4350 50  0000 L CNN
F 1 "OPTO-DARLINGTON" H 7950 3950 50  0000 L CNN
F 2 "" H 7950 3950 50  0000 L CIN
F 3 "" H 8150 4125 50  0000 L CNN
	1    8150 4150
	1    0    0    -1  
$EndComp
$Comp
L OPTO-DARLINGTON U12
U 1 1 55FB25B2
P 8200 5700
AR Path="/55AD4233/55FB25B2" Ref="U12"  Part="1" 
AR Path="/55FAE325/55FB25B2" Ref="U12"  Part="1" 
AR Path="/55FAEDFB/55FB25B2" Ref="U12"  Part="1" 
F 0 "U12" H 8000 5900 50  0000 L CNN
F 1 "OPTO-DARLINGTON" H 8000 5500 50  0000 L CNN
F 2 "" H 8000 5500 50  0000 L CIN
F 3 "" H 8200 5675 50  0000 L CNN
	1    8200 5700
	1    0    0    -1  
$EndComp
Wire Wire Line
	3350 2850 3250 2850
Wire Wire Line
	9050 1500 9050 1450
Wire Wire Line
	9050 1450 9150 1450
Wire Wire Line
	9050 3150 9050 3050
Wire Wire Line
	9050 3050 9150 3050
Wire Wire Line
	9050 4750 9050 4650
Wire Wire Line
	9050 4650 9150 4650
Wire Wire Line
	9050 6300 9050 6200
Wire Wire Line
	9050 6200 9150 6200
Wire Wire Line
	8650 5700 8500 5700
Wire Wire Line
	8650 950  8650 5700
Wire Wire Line
	8650 4150 8450 4150
Wire Wire Line
	8650 2550 8500 2550
Connection ~ 8650 4150
Connection ~ 8650 2550
Wire Wire Line
	8650 950  8500 950 
Wire Wire Line
	7800 850  7800 5600
Connection ~ 7800 850 
Wire Wire Line
	3750 1750 3650 1750
Wire Wire Line
	3650 1750 3650 1850
Wire Wire Line
	3750 3350 3650 3350
Wire Wire Line
	3650 3350 3650 3450
Wire Wire Line
	3750 4950 3650 4950
Wire Wire Line
	3650 4950 3650 5050
Wire Wire Line
	3750 6500 3650 6500
Wire Wire Line
	3650 6500 3650 6600
Wire Wire Line
	3350 4450 3250 4450
Connection ~ 3350 2850
Wire Wire Line
	3350 6000 3250 6000
Connection ~ 3350 4450
Wire Wire Line
	3350 800  3350 4450
Wire Wire Line
	3350 1250 3250 1250
Connection ~ 3350 1250
$EndSCHEMATC
