EESchema Schematic File Version 2
LIBS:power
LIBS:device
LIBS:transistors
LIBS:conn
LIBS:linear
LIBS:regul
LIBS:74xx
LIBS:cmos4000
LIBS:adc-dac
LIBS:memory
LIBS:xilinx
LIBS:special
LIBS:microcontrollers
LIBS:dsp
LIBS:microchip
LIBS:analog_switches
LIBS:motorola
LIBS:texas
LIBS:intel
LIBS:audio
LIBS:interface
LIBS:digital-audio
LIBS:philips
LIBS:display
LIBS:cypress
LIBS:siliconi
LIBS:opto
LIBS:atmel
LIBS:contrib
LIBS:valves
LIBS:micro-cache
LIBS:XPRESSO1769
LIBS:nxp_armmcu
LIBS:lm2596
LIBS:relay
LIBS:Board-cache
EELAYER 25 0
EELAYER END
$Descr A4 11693 8268
encoding utf-8
Sheet 1 6
Title ""
Date "22 aug 2015"
Rev ""
Comp ""
Comment1 ""
Comment2 ""
Comment3 ""
Comment4 ""
$EndDescr
$Sheet
S 1600 4850 1700 1850
U 55AC3A0A
F0 "BLUETOOT-MICRO" 60
F1 "BLUETOOT-MICRO.sch" 60
F2 "3.3V" I R 3300 5000 60 
F3 "TX" I R 3300 5150 60 
F4 "RX" I R 3300 5250 60 
$EndSheet
$Sheet
S 1650 1000 1650 2000
U 55AC738A
F0 "FUENTE" 60
F1 "FUENTE.sch" 60
F2 "3.3V" O R 3300 1350 60 
F3 "5V" O R 3300 1200 60 
F4 "GND" I R 3300 1100 60 
$EndSheet
$Sheet
S 3950 1000 2250 5350
U 55AD3B07
F0 "LPC1769" 60
F1 "LPC1769.sch" 60
F2 "EXT_POWX" I L 3950 1200 60 
F3 "TXD1" O L 3950 5250 60 
F4 "RXD1" I L 3950 5150 60 
F5 "GNDX" O L 3950 1100 60 
F6 "P2[0]" B R 6200 1200 60 
F7 "P2[1]" B R 6200 1300 60 
F8 "P2[2]" B R 6200 1400 60 
F9 "P2[3]" B R 6200 1500 60 
F10 "P2[4]" B R 6200 1600 60 
F11 "P2[5]" B R 6200 1700 60 
F12 "P2[6]" B R 6200 1800 60 
F13 "P2[7]" B R 6200 1900 60 
F14 "P2[8]" B R 6200 2700 60 
F15 "P2[9]" B R 6200 2800 60 
F16 "P2[10]" B R 6200 2900 60 
F17 "P2[11]" B R 6200 3000 60 
F18 "P2[12]" B R 6200 3100 60 
F19 "P2[13]" B R 6200 3200 60 
F20 "P0[11]" B R 6200 3300 60 
F21 "P0[10]" B R 6200 3400 60 
$EndSheet
Wire Wire Line
	3300 5150 3950 5150
Wire Wire Line
	3300 5250 3950 5250
Wire Wire Line
	3300 1200 3950 1200
Wire Wire Line
	3300 1100 3950 1100
Wire Wire Line
	3300 1350 3500 1350
Wire Wire Line
	3500 5000 3300 5000
Text Label 3500 1350 2    60   ~ 0
3.3V
Text Label 3500 5000 2    60   ~ 0
3.3V
Wire Wire Line
	6200 1200 6700 1200
Wire Wire Line
	6200 1300 6700 1300
Wire Wire Line
	6200 1400 6700 1400
Wire Wire Line
	6200 1500 6700 1500
Wire Wire Line
	6200 1600 6700 1600
Wire Wire Line
	6200 1700 6700 1700
Wire Wire Line
	6200 1800 6700 1800
Wire Wire Line
	6200 1900 6700 1900
Wire Wire Line
	6200 2700 6700 2700
Wire Wire Line
	6200 2800 6700 2800
Wire Wire Line
	6200 2900 6700 2900
Wire Wire Line
	6200 3000 6700 3000
Wire Wire Line
	6200 3100 6700 3100
Wire Wire Line
	6200 3200 6700 3200
Wire Wire Line
	6200 3300 6700 3300
Wire Wire Line
	6200 3400 6700 3400
$Sheet
S 6700 1100 1800 1050
U 55AD4233
F0 "SALIDA1" 60
F1 "SALIDA1.sch" 60
F2 "In1" I L 6700 1200 60 
F3 "12Vdc" I R 8500 1200 60 
F4 "5Vdc" I R 8500 1300 60 
F5 "In2" I L 6700 1300 60 
F6 "In3" I L 6700 1400 60 
F7 "In4" I L 6700 1500 60 
F8 "In5" I L 6700 1600 60 
F9 "In6" I L 6700 1700 60 
F10 "In7" I L 6700 1800 60 
F11 "In8" I L 6700 1900 60 
$EndSheet
$Sheet
S 6700 2600 1800 1050
U 55FB05FD
F0 "SALIDA2" 60
F1 "SALIDA2.sch" 60
F2 "In9" I L 6700 2700 60 
F3 "12Vdc" I R 8500 2700 60 
F4 "5Vdc" I R 8500 2800 60 
F5 "In10" I L 6700 2800 60 
F6 "In11" I L 6700 2900 60 
F7 "In12" I L 6700 3000 60 
F8 "In13" I L 6700 3100 60 
F9 "In14" I L 6700 3200 60 
F10 "In15" I L 6700 3300 60 
F11 "In16" I L 6700 3400 60 
$EndSheet
$EndSCHEMATC
