EESchema Schematic File Version 2
LIBS:power
LIBS:device
LIBS:transistors
LIBS:conn
LIBS:linear
LIBS:regul
LIBS:74xx
LIBS:cmos4000
LIBS:adc-dac
LIBS:memory
LIBS:xilinx
LIBS:special
LIBS:microcontrollers
LIBS:dsp
LIBS:microchip
LIBS:analog_switches
LIBS:motorola
LIBS:texas
LIBS:intel
LIBS:audio
LIBS:interface
LIBS:digital-audio
LIBS:philips
LIBS:display
LIBS:cypress
LIBS:siliconi
LIBS:opto
LIBS:atmel
LIBS:contrib
LIBS:valves
LIBS:micro-cache
LIBS:XPRESSO1769
LIBS:nxp_armmcu
LIBS:lm2596
LIBS:relay
LIBS:loborne
LIBS:bornes x2
LIBS:Board-cache
EELAYER 25 0
EELAYER END
$Descr A4 11693 8268
encoding utf-8
Sheet 2 6
Title ""
Date "22 aug 2015"
Rev ""
Comp ""
Comment1 ""
Comment2 ""
Comment3 ""
Comment4 ""
$EndDescr
Wire Wire Line
	1950 6900 1700 6900
$Comp
L PWR_FLAG #FLG01
U 1 1 55D889B1
P 1700 6900
F 0 "#FLG01" H 1700 6995 30  0001 C CNN
F 1 "PWR_FLAG" H 1700 7080 30  0000 C CNN
F 2 "" H 1700 6900 60  0001 C CNN
F 3 "" H 1700 6900 60  0001 C CNN
	1    1700 6900
	1    0    0    -1  
$EndComp
$Comp
L OPTO-TRIAC MOC7
U 1 1 55AD3B1D
P 8150 4650
F 0 "MOC7" H 8350 4950 60  0000 C CNN
F 1 "OPTO-TRIAC" H 8250 4350 60  0000 C CNN
F 2 "" H 8150 4650 60  0001 C CNN
F 3 "" H 8150 4650 60  0001 C CNN
	1    8150 4650
	1    0    0    -1  
$EndComp
$Comp
L R Ri7
U 1 1 55AD3B1C
P 7000 4450
F 0 "Ri7" V 7080 4450 50  0000 C CNN
F 1 "100" V 7000 4450 50  0000 C CNN
F 2 "" H 7000 4450 60  0001 C CNN
F 3 "" H 7000 4450 60  0001 C CNN
	1    7000 4450
	0    -1   -1   0   
$EndComp
$Comp
L LED D7
U 1 1 55B00E8B
P 7250 4950
F 0 "D7" H 7250 5050 50  0000 C CNN
F 1 "LED" H 7250 4850 50  0000 C CNN
F 2 "" H 7250 4950 60  0001 C CNN
F 3 "" H 7250 4950 60  0001 C CNN
	1    7250 4950
	0    1    1    0   
$EndComp
$Comp
L TRIAC T7
U 1 1 55B00E8A
P 10250 4650
F 0 "T7" H 10000 5000 70  0000 C CNN
F 1 "TRIAC" H 9950 4400 60  0000 C CNN
F 2 "" H 10250 4650 60  0001 C CNN
F 3 "" H 10250 4650 60  0001 C CNN
	1    10250 4650
	1    0    0    -1  
$EndComp
$Comp
L GND #PWR02
U 1 1 55B00E89
P 7250 5300
F 0 "#PWR02" H 7250 5300 30  0001 C CNN
F 1 "GND" H 7250 5230 30  0001 C CNN
F 2 "" H 7250 5300 60  0001 C CNN
F 3 "" H 7250 5300 60  0001 C CNN
	1    7250 5300
	1    0    0    -1  
$EndComp
$Comp
L R Rs7
U 1 1 55B00E88
P 9250 4850
F 0 "Rs7" V 9330 4850 50  0000 C CNN
F 1 "330" V 9250 4850 50  0000 C CNN
F 2 "" H 9250 4850 60  0001 C CNN
F 3 "" H 9250 4850 60  0001 C CNN
	1    9250 4850
	0    -1   -1   0   
$EndComp
$Comp
L PWR_FLAG #FLG03
U 1 1 55B00E87
P 7000 5200
F 0 "#FLG03" H 7000 5295 30  0001 C CNN
F 1 "PWR_FLAG" H 7000 5380 30  0000 C CNN
F 2 "" H 7000 5200 60  0001 C CNN
F 3 "" H 7000 5200 60  0001 C CNN
	1    7000 5200
	1    0    0    -1  
$EndComp
$Comp
L PWR_FLAG #FLG04
U 1 1 55AD3B14
P 10450 4900
F 0 "#FLG04" H 10450 4995 30  0001 C CNN
F 1 "PWR_FLAG" H 10450 5080 30  0000 C CNN
F 2 "" H 10450 4900 60  0001 C CNN
F 3 "" H 10450 4900 60  0001 C CNN
	1    10450 4900
	1    0    0    -1  
$EndComp
Text HLabel 10650 4250 2    60   Output ~ 0
salp15
Text HLabel 6400 4450 0    60   Input ~ 0
salm15
Wire Wire Line
	7250 5200 7000 5200
Connection ~ 10250 4250
Wire Wire Line
	9400 4850 9750 4850
Wire Wire Line
	7250 5150 7250 5300
Wire Wire Line
	7150 4450 7850 4450
Wire Wire Line
	7250 4750 7850 4750
Wire Wire Line
	8450 4850 9100 4850
Wire Wire Line
	8450 4450 9400 4450
Wire Wire Line
	9400 4450 9400 4250
Connection ~ 7250 5200
Connection ~ 10250 4900
Wire Wire Line
	10250 4900 10450 4900
Wire Wire Line
	9400 4250 10650 4250
Wire Wire Line
	6400 4450 6850 4450
Wire Wire Line
	6400 5950 6850 5950
Wire Wire Line
	10650 5750 9400 5750
Wire Wire Line
	10250 6400 10450 6400
Connection ~ 10250 6400
Connection ~ 7250 6700
Wire Wire Line
	9400 5750 9400 5950
Wire Wire Line
	9400 5950 8450 5950
Wire Wire Line
	8450 6350 9100 6350
Wire Wire Line
	7250 6250 7850 6250
Wire Wire Line
	7150 5950 7850 5950
Wire Wire Line
	7250 6650 7250 6800
Wire Wire Line
	9400 6350 9750 6350
Connection ~ 10250 5750
Wire Wire Line
	7250 6700 7000 6700
Text HLabel 6400 5950 0    60   Input ~ 0
salm16
Text HLabel 10650 5750 2    60   Output ~ 0
salp16
$Comp
L PWR_FLAG #FLG05
U 1 1 55AD3B13
P 10450 6400
F 0 "#FLG05" H 10450 6495 30  0001 C CNN
F 1 "PWR_FLAG" H 10450 6580 30  0000 C CNN
F 2 "" H 10450 6400 60  0001 C CNN
F 3 "" H 10450 6400 60  0001 C CNN
	1    10450 6400
	1    0    0    -1  
$EndComp
$Comp
L PWR_FLAG #FLG06
U 1 1 55AD3B10
P 7000 6700
F 0 "#FLG06" H 7000 6795 30  0001 C CNN
F 1 "PWR_FLAG" H 7000 6880 30  0000 C CNN
F 2 "" H 7000 6700 60  0001 C CNN
F 3 "" H 7000 6700 60  0001 C CNN
	1    7000 6700
	1    0    0    -1  
$EndComp
$Comp
L R Rs8
U 1 1 55AD3B0F
P 9250 6350
F 0 "Rs8" V 9330 6350 50  0000 C CNN
F 1 "330" V 9250 6350 50  0000 C CNN
F 2 "" H 9250 6350 60  0001 C CNN
F 3 "" H 9250 6350 60  0001 C CNN
	1    9250 6350
	0    -1   -1   0   
$EndComp
$Comp
L GND #PWR07
U 1 1 55AD3B0E
P 7250 6800
F 0 "#PWR07" H 7250 6800 30  0001 C CNN
F 1 "GND" H 7250 6730 30  0001 C CNN
F 2 "" H 7250 6800 60  0001 C CNN
F 3 "" H 7250 6800 60  0001 C CNN
	1    7250 6800
	1    0    0    -1  
$EndComp
$Comp
L TRIAC T8
U 1 1 55AD3B0D
P 10250 6150
F 0 "T8" H 10000 6500 70  0000 C CNN
F 1 "TRIAC" H 9950 5900 60  0000 C CNN
F 2 "" H 10250 6150 60  0001 C CNN
F 3 "" H 10250 6150 60  0001 C CNN
	1    10250 6150
	1    0    0    -1  
$EndComp
$Comp
L LED D8
U 1 1 55AD3B0C
P 7250 6450
F 0 "D8" H 7250 6550 50  0000 C CNN
F 1 "LED" H 7250 6350 50  0000 C CNN
F 2 "" H 7250 6450 60  0001 C CNN
F 3 "" H 7250 6450 60  0001 C CNN
	1    7250 6450
	0    1    1    0   
$EndComp
$Comp
L R Ri8
U 1 1 55AD3B0B
P 7000 5950
F 0 "Ri8" V 7080 5950 50  0000 C CNN
F 1 "100" V 7000 5950 50  0000 C CNN
F 2 "" H 7000 5950 60  0001 C CNN
F 3 "" H 7000 5950 60  0001 C CNN
	1    7000 5950
	0    -1   -1   0   
$EndComp
$Comp
L OPTO-TRIAC MOC8
U 1 1 55B00E7E
P 8150 6150
F 0 "MOC8" H 8350 6450 60  0000 C CNN
F 1 "OPTO-TRIAC" H 8250 5850 60  0000 C CNN
F 2 "" H 8150 6150 60  0001 C CNN
F 3 "" H 8150 6150 60  0001 C CNN
	1    8150 6150
	1    0    0    -1  
$EndComp
$Comp
L OPTO-TRIAC MOC6
U 1 1 55B00E7D
P 8150 3100
F 0 "MOC6" H 8350 3400 60  0000 C CNN
F 1 "OPTO-TRIAC" H 8250 2800 60  0000 C CNN
F 2 "" H 8150 3100 60  0001 C CNN
F 3 "" H 8150 3100 60  0001 C CNN
	1    8150 3100
	1    0    0    -1  
$EndComp
$Comp
L R Ri6
U 1 1 55B00E7C
P 7000 2900
F 0 "Ri6" V 7080 2900 50  0000 C CNN
F 1 "100" V 7000 2900 50  0000 C CNN
F 2 "" H 7000 2900 60  0001 C CNN
F 3 "" H 7000 2900 60  0001 C CNN
	1    7000 2900
	0    -1   -1   0   
$EndComp
$Comp
L LED D6
U 1 1 55B00E7B
P 7250 3400
F 0 "D6" H 7250 3500 50  0000 C CNN
F 1 "LED" H 7250 3300 50  0000 C CNN
F 2 "" H 7250 3400 60  0001 C CNN
F 3 "" H 7250 3400 60  0001 C CNN
	1    7250 3400
	0    1    1    0   
$EndComp
$Comp
L TRIAC T6
U 1 1 55AD3AC8
P 10250 3100
F 0 "T6" H 10000 3450 70  0000 C CNN
F 1 "TRIAC" H 9950 2850 60  0000 C CNN
F 2 "" H 10250 3100 60  0001 C CNN
F 3 "" H 10250 3100 60  0001 C CNN
	1    10250 3100
	1    0    0    -1  
$EndComp
$Comp
L GND #PWR08
U 1 1 55AD3AC7
P 7250 3750
F 0 "#PWR08" H 7250 3750 30  0001 C CNN
F 1 "GND" H 7250 3680 30  0001 C CNN
F 2 "" H 7250 3750 60  0001 C CNN
F 3 "" H 7250 3750 60  0001 C CNN
	1    7250 3750
	1    0    0    -1  
$EndComp
$Comp
L R Rs6
U 1 1 55B00E78
P 9250 3300
F 0 "Rs6" V 9330 3300 50  0000 C CNN
F 1 "330" V 9250 3300 50  0000 C CNN
F 2 "" H 9250 3300 60  0001 C CNN
F 3 "" H 9250 3300 60  0001 C CNN
	1    9250 3300
	0    -1   -1   0   
$EndComp
$Comp
L PWR_FLAG #FLG09
U 1 1 55AD3AC5
P 7000 3650
F 0 "#FLG09" H 7000 3745 30  0001 C CNN
F 1 "PWR_FLAG" H 7000 3830 30  0000 C CNN
F 2 "" H 7000 3650 60  0001 C CNN
F 3 "" H 7000 3650 60  0001 C CNN
	1    7000 3650
	1    0    0    -1  
$EndComp
$Comp
L PWR_FLAG #FLG010
U 1 1 55B00E76
P 10450 3350
F 0 "#FLG010" H 10450 3445 30  0001 C CNN
F 1 "PWR_FLAG" H 10450 3530 30  0000 C CNN
F 2 "" H 10450 3350 60  0001 C CNN
F 3 "" H 10450 3350 60  0001 C CNN
	1    10450 3350
	1    0    0    -1  
$EndComp
Text HLabel 10650 2700 2    60   Output ~ 0
salp14
Text HLabel 6400 2900 0    60   Input ~ 0
salm14
Wire Wire Line
	7250 3650 7000 3650
Connection ~ 10250 2700
Wire Wire Line
	9400 3300 9750 3300
Wire Wire Line
	7250 3600 7250 3750
Wire Wire Line
	7150 2900 7850 2900
Wire Wire Line
	7250 3200 7850 3200
Wire Wire Line
	8450 3300 9100 3300
Wire Wire Line
	8450 2900 9400 2900
Wire Wire Line
	9400 2900 9400 2700
Connection ~ 7250 3650
Connection ~ 10250 3350
Wire Wire Line
	10250 3350 10450 3350
Wire Wire Line
	9400 2700 10650 2700
Wire Wire Line
	6400 2900 6850 2900
Wire Wire Line
	6400 1450 6850 1450
Wire Wire Line
	10650 1250 9400 1250
Wire Wire Line
	10250 1900 10450 1900
Connection ~ 10250 1900
Connection ~ 7250 2200
Wire Wire Line
	9400 1250 9400 1450
Wire Wire Line
	9400 1450 8450 1450
Wire Wire Line
	8450 1850 9100 1850
Wire Wire Line
	7250 1750 7850 1750
Wire Wire Line
	7150 1450 7850 1450
Wire Wire Line
	7250 2150 7250 2300
Wire Wire Line
	9400 1850 9750 1850
Connection ~ 10250 1250
Wire Wire Line
	7250 2200 7000 2200
Text HLabel 6400 1450 0    60   Input ~ 0
salm13
Text HLabel 10650 1250 2    60   Output ~ 0
salp13
$Comp
L PWR_FLAG #FLG011
U 1 1 55B00E75
P 10450 1900
F 0 "#FLG011" H 10450 1995 30  0001 C CNN
F 1 "PWR_FLAG" H 10450 2080 30  0000 C CNN
F 2 "" H 10450 1900 60  0001 C CNN
F 3 "" H 10450 1900 60  0001 C CNN
	1    10450 1900
	1    0    0    -1  
$EndComp
$Comp
L PWR_FLAG #FLG012
U 1 1 55AD3ABE
P 7000 2200
F 0 "#FLG012" H 7000 2295 30  0001 C CNN
F 1 "PWR_FLAG" H 7000 2380 30  0000 C CNN
F 2 "" H 7000 2200 60  0001 C CNN
F 3 "" H 7000 2200 60  0001 C CNN
	1    7000 2200
	1    0    0    -1  
$EndComp
$Comp
L R Rs5
U 1 1 55AD3ABD
P 9250 1850
F 0 "Rs5" V 9330 1850 50  0000 C CNN
F 1 "330" V 9250 1850 50  0000 C CNN
F 2 "" H 9250 1850 60  0001 C CNN
F 3 "" H 9250 1850 60  0001 C CNN
	1    9250 1850
	0    -1   -1   0   
$EndComp
$Comp
L GND #PWR013
U 1 1 55B00E72
P 7250 2300
F 0 "#PWR013" H 7250 2300 30  0001 C CNN
F 1 "GND" H 7250 2230 30  0001 C CNN
F 2 "" H 7250 2300 60  0001 C CNN
F 3 "" H 7250 2300 60  0001 C CNN
	1    7250 2300
	1    0    0    -1  
$EndComp
$Comp
L TRIAC T5
U 1 1 55AD3ABB
P 10250 1650
F 0 "T5" H 10000 2000 70  0000 C CNN
F 1 "TRIAC" H 9950 1400 60  0000 C CNN
F 2 "" H 10250 1650 60  0001 C CNN
F 3 "" H 10250 1650 60  0001 C CNN
	1    10250 1650
	1    0    0    -1  
$EndComp
$Comp
L LED D5
U 1 1 55AD3ABA
P 7250 1950
F 0 "D5" H 7250 2050 50  0000 C CNN
F 1 "LED" H 7250 1850 50  0000 C CNN
F 2 "" H 7250 1950 60  0001 C CNN
F 3 "" H 7250 1950 60  0001 C CNN
	1    7250 1950
	0    1    1    0   
$EndComp
$Comp
L R Ri5
U 1 1 55B00E6F
P 7000 1450
F 0 "Ri5" V 7080 1450 50  0000 C CNN
F 1 "100" V 7000 1450 50  0000 C CNN
F 2 "" H 7000 1450 60  0001 C CNN
F 3 "" H 7000 1450 60  0001 C CNN
	1    7000 1450
	0    -1   -1   0   
$EndComp
$Comp
L OPTO-TRIAC MOC5
U 1 1 55B00E6E
P 8150 1650
F 0 "MOC5" H 8350 1950 60  0000 C CNN
F 1 "OPTO-TRIAC" H 8250 1350 60  0000 C CNN
F 2 "" H 8150 1650 60  0001 C CNN
F 3 "" H 8150 1650 60  0001 C CNN
	1    8150 1650
	1    0    0    -1  
$EndComp
$Comp
L OPTO-TRIAC MOC3
U 1 1 55B00E6D
P 2850 4850
F 0 "MOC3" H 3050 5150 60  0000 C CNN
F 1 "OPTO-TRIAC" H 2950 4550 60  0000 C CNN
F 2 "" H 2850 4850 60  0001 C CNN
F 3 "" H 2850 4850 60  0001 C CNN
	1    2850 4850
	1    0    0    -1  
$EndComp
$Comp
L R Ri3
U 1 1 55B00E6C
P 1700 4650
F 0 "Ri3" V 1780 4650 50  0000 C CNN
F 1 "100" V 1700 4650 50  0000 C CNN
F 2 "" H 1700 4650 60  0001 C CNN
F 3 "" H 1700 4650 60  0001 C CNN
	1    1700 4650
	0    -1   -1   0   
$EndComp
$Comp
L LED D3
U 1 1 55AD3AAD
P 1950 5150
F 0 "D3" H 1950 5250 50  0000 C CNN
F 1 "LED" H 1950 5050 50  0000 C CNN
F 2 "" H 1950 5150 60  0001 C CNN
F 3 "" H 1950 5150 60  0001 C CNN
	1    1950 5150
	0    1    1    0   
$EndComp
$Comp
L TRIAC T3
U 1 1 55B00E6A
P 4950 4850
F 0 "T3" H 4700 5200 70  0000 C CNN
F 1 "TRIAC" H 4650 4600 60  0000 C CNN
F 2 "" H 4950 4850 60  0001 C CNN
F 3 "" H 4950 4850 60  0001 C CNN
	1    4950 4850
	1    0    0    -1  
$EndComp
$Comp
L GND #PWR014
U 1 1 55AD3AAB
P 1950 5500
F 0 "#PWR014" H 1950 5500 30  0001 C CNN
F 1 "GND" H 1950 5430 30  0001 C CNN
F 2 "" H 1950 5500 60  0001 C CNN
F 3 "" H 1950 5500 60  0001 C CNN
	1    1950 5500
	1    0    0    -1  
$EndComp
$Comp
L R Rs3
U 1 1 55AD3AAA
P 3950 5050
F 0 "Rs3" V 4030 5050 50  0000 C CNN
F 1 "330" V 3950 5050 50  0000 C CNN
F 2 "" H 3950 5050 60  0001 C CNN
F 3 "" H 3950 5050 60  0001 C CNN
	1    3950 5050
	0    -1   -1   0   
$EndComp
$Comp
L PWR_FLAG #FLG015
U 1 1 55B00E67
P 1700 5400
F 0 "#FLG015" H 1700 5495 30  0001 C CNN
F 1 "PWR_FLAG" H 1700 5580 30  0000 C CNN
F 2 "" H 1700 5400 60  0001 C CNN
F 3 "" H 1700 5400 60  0001 C CNN
	1    1700 5400
	1    0    0    -1  
$EndComp
$Comp
L PWR_FLAG #FLG016
U 1 1 55AD3AA6
P 5150 5100
F 0 "#FLG016" H 5150 5195 30  0001 C CNN
F 1 "PWR_FLAG" H 5150 5280 30  0000 C CNN
F 2 "" H 5150 5100 60  0001 C CNN
F 3 "" H 5150 5100 60  0001 C CNN
	1    5150 5100
	1    0    0    -1  
$EndComp
Text HLabel 5350 4450 2    60   Output ~ 0
salp11
Text HLabel 1100 4650 0    60   Input ~ 0
salm11
Wire Wire Line
	1950 5400 1700 5400
Connection ~ 4950 4450
Wire Wire Line
	4100 5050 4450 5050
Wire Wire Line
	1950 5350 1950 5500
Wire Wire Line
	1850 4650 2550 4650
Wire Wire Line
	1950 4950 2550 4950
Wire Wire Line
	3150 5050 3800 5050
Wire Wire Line
	3150 4650 4100 4650
Wire Wire Line
	4100 4650 4100 4450
Connection ~ 1950 5400
Connection ~ 4950 5100
Wire Wire Line
	4950 5100 5150 5100
Wire Wire Line
	4100 4450 5350 4450
Wire Wire Line
	1100 4650 1550 4650
Wire Wire Line
	1100 6150 1550 6150
Wire Wire Line
	5350 5950 4100 5950
Wire Wire Line
	4950 6600 5150 6600
Connection ~ 4950 6600
Wire Wire Line
	4100 5950 4100 6150
Wire Wire Line
	4100 6150 3150 6150
Wire Wire Line
	3150 6550 3800 6550
Wire Wire Line
	1950 6450 2550 6450
Wire Wire Line
	1850 6150 2550 6150
Wire Wire Line
	1950 6850 1950 7000
Wire Wire Line
	4100 6550 4450 6550
Connection ~ 4950 5950
Text HLabel 1100 6150 0    60   Input ~ 0
salm12
Text HLabel 5350 5950 2    60   Output ~ 0
salp12
$Comp
L PWR_FLAG #FLG017
U 1 1 55B00E65
P 5150 6600
F 0 "#FLG017" H 5150 6695 30  0001 C CNN
F 1 "PWR_FLAG" H 5150 6780 30  0000 C CNN
F 2 "" H 5150 6600 60  0001 C CNN
F 3 "" H 5150 6600 60  0001 C CNN
	1    5150 6600
	1    0    0    -1  
$EndComp
$Comp
L R Rs4
U 1 1 55B00E64
P 3950 6550
F 0 "Rs4" V 4030 6550 50  0000 C CNN
F 1 "330" V 3950 6550 50  0000 C CNN
F 2 "" H 3950 6550 60  0001 C CNN
F 3 "" H 3950 6550 60  0001 C CNN
	1    3950 6550
	0    -1   -1   0   
$EndComp
$Comp
L GND #PWR018
U 1 1 55AD3AA0
P 1950 7000
F 0 "#PWR018" H 1950 7000 30  0001 C CNN
F 1 "GND" H 1950 6930 30  0001 C CNN
F 2 "" H 1950 7000 60  0001 C CNN
F 3 "" H 1950 7000 60  0001 C CNN
	1    1950 7000
	1    0    0    -1  
$EndComp
$Comp
L TRIAC T4
U 1 1 55AD3A9F
P 4950 6350
F 0 "T4" H 4700 6700 70  0000 C CNN
F 1 "TRIAC" H 4650 6100 60  0000 C CNN
F 2 "" H 4950 6350 60  0001 C CNN
F 3 "" H 4950 6350 60  0001 C CNN
	1    4950 6350
	1    0    0    -1  
$EndComp
$Comp
L LED D4
U 1 1 55B00E61
P 1950 6650
F 0 "D4" H 1950 6750 50  0000 C CNN
F 1 "LED" H 1950 6550 50  0000 C CNN
F 2 "" H 1950 6650 60  0001 C CNN
F 3 "" H 1950 6650 60  0001 C CNN
	1    1950 6650
	0    1    1    0   
$EndComp
$Comp
L R Ri4
U 1 1 55AD3A9D
P 1700 6150
F 0 "Ri4" V 1780 6150 50  0000 C CNN
F 1 "100" V 1700 6150 50  0000 C CNN
F 2 "" H 1700 6150 60  0001 C CNN
F 3 "" H 1700 6150 60  0001 C CNN
	1    1700 6150
	0    -1   -1   0   
$EndComp
$Comp
L OPTO-TRIAC MOC4
U 1 1 55AD3A9C
P 2850 6350
F 0 "MOC4" H 3050 6650 60  0000 C CNN
F 1 "OPTO-TRIAC" H 2950 6050 60  0000 C CNN
F 2 "" H 2850 6350 60  0001 C CNN
F 3 "" H 2850 6350 60  0001 C CNN
	1    2850 6350
	1    0    0    -1  
$EndComp
$Comp
L OPTO-TRIAC MOC2
U 1 1 55AD3A6D
P 2850 3300
F 0 "MOC2" H 3050 3600 60  0000 C CNN
F 1 "OPTO-TRIAC" H 2950 3000 60  0000 C CNN
F 2 "" H 2850 3300 60  0001 C CNN
F 3 "" H 2850 3300 60  0001 C CNN
	1    2850 3300
	1    0    0    -1  
$EndComp
$Comp
L R Ri2
U 1 1 55B00E5D
P 1700 3100
F 0 "Ri2" V 1780 3100 50  0000 C CNN
F 1 "100" V 1700 3100 50  0000 C CNN
F 2 "" H 1700 3100 60  0001 C CNN
F 3 "" H 1700 3100 60  0001 C CNN
	1    1700 3100
	0    -1   -1   0   
$EndComp
$Comp
L LED D2
U 1 1 55B00E5C
P 1950 3600
F 0 "D2" H 1950 3700 50  0000 C CNN
F 1 "LED" H 1950 3500 50  0000 C CNN
F 2 "" H 1950 3600 60  0001 C CNN
F 3 "" H 1950 3600 60  0001 C CNN
	1    1950 3600
	0    1    1    0   
$EndComp
$Comp
L TRIAC T2
U 1 1 55B00E5B
P 4950 3300
F 0 "T2" H 4700 3650 70  0000 C CNN
F 1 "TRIAC" H 4650 3050 60  0000 C CNN
F 2 "" H 4950 3300 60  0001 C CNN
F 3 "" H 4950 3300 60  0001 C CNN
	1    4950 3300
	1    0    0    -1  
$EndComp
$Comp
L GND #PWR019
U 1 1 55B00E5A
P 1950 3950
F 0 "#PWR019" H 1950 3950 30  0001 C CNN
F 1 "GND" H 1950 3880 30  0001 C CNN
F 2 "" H 1950 3950 60  0001 C CNN
F 3 "" H 1950 3950 60  0001 C CNN
	1    1950 3950
	1    0    0    -1  
$EndComp
$Comp
L R Rs2
U 1 1 55AD3A68
P 3950 3500
F 0 "Rs2" V 4030 3500 50  0000 C CNN
F 1 "330" V 3950 3500 50  0000 C CNN
F 2 "" H 3950 3500 60  0001 C CNN
F 3 "" H 3950 3500 60  0001 C CNN
	1    3950 3500
	0    -1   -1   0   
$EndComp
$Comp
L PWR_FLAG #FLG020
U 1 1 55AD3A67
P 1700 3850
F 0 "#FLG020" H 1700 3945 30  0001 C CNN
F 1 "PWR_FLAG" H 1700 4030 30  0000 C CNN
F 2 "" H 1700 3850 60  0001 C CNN
F 3 "" H 1700 3850 60  0001 C CNN
	1    1700 3850
	1    0    0    -1  
$EndComp
$Comp
L PWR_FLAG #FLG021
U 1 1 55AD3A64
P 5150 3550
F 0 "#FLG021" H 5150 3645 30  0001 C CNN
F 1 "PWR_FLAG" H 5150 3730 30  0000 C CNN
F 2 "" H 5150 3550 60  0001 C CNN
F 3 "" H 5150 3550 60  0001 C CNN
	1    5150 3550
	1    0    0    -1  
$EndComp
Text HLabel 5350 2900 2    60   Output ~ 0
salp10
Text HLabel 1100 3100 0    60   Input ~ 0
salm10
Wire Wire Line
	1950 3850 1700 3850
Connection ~ 4950 2900
Wire Wire Line
	4100 3500 4450 3500
Wire Wire Line
	1950 3800 1950 3950
Wire Wire Line
	1850 3100 2550 3100
Wire Wire Line
	1950 3400 2550 3400
Wire Wire Line
	3150 3500 3800 3500
Wire Wire Line
	3150 3100 4100 3100
Wire Wire Line
	4100 3100 4100 2900
Connection ~ 1950 3850
Connection ~ 4950 3550
Wire Wire Line
	4950 3550 5150 3550
Wire Wire Line
	4100 2900 5350 2900
Wire Wire Line
	1100 3100 1550 3100
Wire Wire Line
	1050 1650 1500 1650
Wire Wire Line
	5300 1450 4050 1450
Wire Wire Line
	4900 2100 5100 2100
Connection ~ 4900 2100
Connection ~ 1900 2400
Wire Wire Line
	4050 1450 4050 1650
Wire Wire Line
	4050 1650 3100 1650
Wire Wire Line
	3100 2050 3750 2050
Wire Wire Line
	1900 1950 2500 1950
Wire Wire Line
	1800 1650 2500 1650
Wire Wire Line
	1900 2350 1900 2500
Wire Wire Line
	4050 2050 4400 2050
Connection ~ 4900 1450
Wire Wire Line
	1900 2400 1650 2400
Text HLabel 1050 1650 0    60   Input ~ 0
salm9
Text HLabel 5300 1450 2    60   Output ~ 0
salp9
$Comp
L PWR_FLAG #FLG022
U 1 1 55B00E56
P 5100 2100
F 0 "#FLG022" H 5100 2195 30  0001 C CNN
F 1 "PWR_FLAG" H 5100 2280 30  0000 C CNN
F 2 "" H 5100 2100 60  0001 C CNN
F 3 "" H 5100 2100 60  0001 C CNN
	1    5100 2100
	1    0    0    -1  
$EndComp
$Comp
L PWR_FLAG #FLG023
U 1 1 55B00E55
P 1650 2400
F 0 "#FLG023" H 1650 2495 30  0001 C CNN
F 1 "PWR_FLAG" H 1650 2580 30  0000 C CNN
F 2 "" H 1650 2400 60  0001 C CNN
F 3 "" H 1650 2400 60  0001 C CNN
	1    1650 2400
	1    0    0    -1  
$EndComp
$Comp
L R Rs1
U 1 1 55B00E54
P 3900 2050
F 0 "Rs1" V 3980 2050 50  0000 C CNN
F 1 "330" V 3900 2050 50  0000 C CNN
F 2 "" H 3900 2050 60  0001 C CNN
F 3 "" H 3900 2050 60  0001 C CNN
	1    3900 2050
	0    -1   -1   0   
$EndComp
$Comp
L GND #PWR024
U 1 1 55B00E53
P 1900 2500
F 0 "#PWR024" H 1900 2500 30  0001 C CNN
F 1 "GND" H 1900 2430 30  0001 C CNN
F 2 "" H 1900 2500 60  0001 C CNN
F 3 "" H 1900 2500 60  0001 C CNN
	1    1900 2500
	1    0    0    -1  
$EndComp
$Comp
L TRIAC T1
U 1 1 55B00E52
P 4900 1850
F 0 "T1" H 4650 2200 70  0000 C CNN
F 1 "TRIAC" H 4600 1600 60  0000 C CNN
F 2 "" H 4900 1850 60  0001 C CNN
F 3 "" H 4900 1850 60  0001 C CNN
	1    4900 1850
	1    0    0    -1  
$EndComp
$Comp
L LED D1
U 1 1 55B00E51
P 1900 2150
F 0 "D1" H 1900 2250 50  0000 C CNN
F 1 "LED" H 1900 2050 50  0000 C CNN
F 2 "" H 1900 2150 60  0001 C CNN
F 3 "" H 1900 2150 60  0001 C CNN
	1    1900 2150
	0    1    1    0   
$EndComp
$Comp
L R Ri1
U 1 1 55A04DEC
P 1650 1650
F 0 "Ri1" V 1730 1650 50  0000 C CNN
F 1 "100" V 1650 1650 50  0000 C CNN
F 2 "" H 1650 1650 60  0001 C CNN
F 3 "" H 1650 1650 60  0001 C CNN
	1    1650 1650
	0    -1   -1   0   
$EndComp
$Comp
L OPTO-TRIAC MOC1
U 1 1 55A04B5C
P 2800 1850
F 0 "MOC1" H 3000 2150 60  0000 C CNN
F 1 "OPTO-TRIAC" H 2900 1550 60  0000 C CNN
F 2 "" H 2800 1850 60  0001 C CNN
F 3 "" H 2800 1850 60  0001 C CNN
	1    2800 1850
	1    0    0    -1  
$EndComp
Wire Wire Line
	2500 1650 2500 1750
Wire Wire Line
	3100 1650 3100 1750
Wire Wire Line
	3100 1950 3100 2050
Wire Wire Line
	7850 1450 7850 1550
Wire Wire Line
	8450 1450 8450 1550
Wire Wire Line
	8450 1750 8450 1850
Wire Wire Line
	2550 3100 2550 3200
Wire Wire Line
	3150 3200 3150 3100
Wire Wire Line
	3150 3400 3150 3500
Wire Wire Line
	2550 4650 2550 4750
Wire Wire Line
	3150 4750 3150 4650
Wire Wire Line
	3150 4950 3150 5050
Wire Wire Line
	2550 6150 2550 6250
Wire Wire Line
	3150 6150 3150 6250
Wire Wire Line
	3150 6450 3150 6550
Wire Wire Line
	7850 2900 7850 3000
Wire Wire Line
	8450 2900 8450 3000
Wire Wire Line
	8450 3300 8450 3200
Wire Wire Line
	8450 4450 8450 4550
Wire Wire Line
	8450 4850 8450 4750
Wire Wire Line
	7850 4450 7850 4550
Wire Wire Line
	7850 5950 7850 6050
Wire Wire Line
	8450 5950 8450 6050
Wire Wire Line
	8450 6250 8450 6350
$EndSCHEMATC
