EESchema Schematic File Version 2
LIBS:power
LIBS:device
LIBS:transistors
LIBS:conn
LIBS:linear
LIBS:regul
LIBS:74xx
LIBS:cmos4000
LIBS:adc-dac
LIBS:memory
LIBS:xilinx
LIBS:special
LIBS:microcontrollers
LIBS:dsp
LIBS:microchip
LIBS:analog_switches
LIBS:motorola
LIBS:texas
LIBS:intel
LIBS:audio
LIBS:interface
LIBS:digital-audio
LIBS:philips
LIBS:display
LIBS:cypress
LIBS:siliconi
LIBS:opto
LIBS:atmel
LIBS:contrib
LIBS:valves
LIBS:micro-cache
LIBS:XPRESSO1769
LIBS:nxp_armmcu
LIBS:lm2596
LIBS:relay
LIBS:Board-cache
EELAYER 25 0
EELAYER END
$Descr A4 11693 8268
encoding utf-8
Sheet 6 6
Title ""
Date ""
Rev ""
Comp ""
Comment1 ""
Comment2 ""
Comment3 ""
Comment4 ""
$EndDescr
$Comp
L GND #PWR035
U 1 1 55FB36A2
P 1600 2150
F 0 "#PWR035" H 1600 2150 30  0001 C CNN
F 1 "GND" H 1600 2080 30  0001 C CNN
F 2 "" H 1600 2150 60  0001 C CNN
F 3 "" H 1600 2150 60  0001 C CNN
	1    1600 2150
	1    0    0    -1  
$EndComp
$Comp
L LED D12
U 1 1 55FB36A8
P 1850 1450
F 0 "D12" V 1850 1550 50  0000 C CNN
F 1 "LED" H 1850 1350 50  0000 C CNN
F 2 "" H 1850 1450 60  0001 C CNN
F 3 "" H 1850 1450 60  0001 C CNN
	1    1850 1450
	-1   0    0    1   
$EndComp
$Comp
L BUZ11 Q9
U 1 1 55FB36AF
P 1500 1850
F 0 "Q9" H 1750 1925 50  0000 L CNN
F 1 "2N7002" H 1750 1850 50  0000 L CNN
F 2 "" H 1750 1775 50  0000 L CIN
F 3 "" H 1500 1850 50  0000 L CNN
	1    1500 1850
	1    0    0    -1  
$EndComp
$Comp
L R Ri17
U 1 1 55FB36B6
P 2250 1450
F 0 "Ri17" V 2350 1450 50  0000 C CNN
F 1 "100" V 2250 1450 50  0000 C CNN
F 2 "" H 2250 1450 60  0001 C CNN
F 3 "" H 2250 1450 60  0001 C CNN
	1    2250 1450
	0    1    1    0   
$EndComp
Text HLabel 850  1900 0    60   Input ~ 0
In9
Text HLabel 2250 900  0    60   Input ~ 0
12Vdc
$Comp
L R Ri21
U 1 1 55FB36BF
P 3500 1450
F 0 "Ri21" V 3600 1450 50  0000 C CNN
F 1 "100" V 3500 1450 50  0000 C CNN
F 2 "" H 3500 1450 60  0001 C CNN
F 3 "" H 3500 1450 60  0001 C CNN
	1    3500 1450
	0    1    1    0   
$EndComp
Text HLabel 2250 1000 0    60   Input ~ 0
5Vdc
$Comp
L GND #PWR036
U 1 1 55FB36C7
P 3600 1950
F 0 "#PWR036" H 3600 1700 50  0001 C CNN
F 1 "GND" H 3600 1800 50  0000 C CNN
F 2 "" H 3600 1950 60  0000 C CNN
F 3 "" H 3600 1950 60  0000 C CNN
	1    3600 1950
	1    0    0    -1  
$EndComp
$Comp
L Relay_12V U25
U 1 1 55FB36CD
P 4300 1650
F 0 "U25" H 4600 2050 60  0000 C CNN
F 1 "Relay_12V" H 4150 2050 60  0000 C CNN
F 2 "" H 4350 1650 60  0000 C CNN
F 3 "" H 4350 1650 60  0000 C CNN
	1    4300 1650
	1    0    0    -1  
$EndComp
$Comp
L TB_1X2 J11
U 1 1 55FB36D4
P 5600 1750
F 0 "J11" H 5600 2050 60  0000 C CNN
F 1 "TB_1X2" H 5650 1450 60  0000 C CNN
F 2 "" H 5550 1800 60  0000 C CNN
F 3 "" H 5550 1800 60  0000 C CNN
	1    5600 1750
	-1   0    0    1   
$EndComp
$Comp
L GND #PWR037
U 1 1 55FB36DB
P 1600 3750
F 0 "#PWR037" H 1600 3750 30  0001 C CNN
F 1 "GND" H 1600 3680 30  0001 C CNN
F 2 "" H 1600 3750 60  0001 C CNN
F 3 "" H 1600 3750 60  0001 C CNN
	1    1600 3750
	1    0    0    -1  
$EndComp
$Comp
L LED D13
U 1 1 55FB36E1
P 1850 3050
F 0 "D13" V 1850 3150 50  0000 C CNN
F 1 "LED" H 1850 2950 50  0000 C CNN
F 2 "" H 1850 3050 60  0001 C CNN
F 3 "" H 1850 3050 60  0001 C CNN
	1    1850 3050
	-1   0    0    1   
$EndComp
$Comp
L BUZ11 Q10
U 1 1 55FB36E8
P 1500 3450
F 0 "Q10" H 1750 3525 50  0000 L CNN
F 1 "2N7002" H 1750 3450 50  0000 L CNN
F 2 "" H 1750 3375 50  0000 L CIN
F 3 "" H 1500 3450 50  0000 L CNN
	1    1500 3450
	1    0    0    -1  
$EndComp
$Comp
L R Ri18
U 1 1 55FB36EF
P 2250 3050
F 0 "Ri18" V 2350 3050 50  0000 C CNN
F 1 "100" V 2250 3050 50  0000 C CNN
F 2 "" H 2250 3050 60  0001 C CNN
F 3 "" H 2250 3050 60  0001 C CNN
	1    2250 3050
	0    1    1    0   
$EndComp
Text HLabel 850  3500 0    60   Input ~ 0
In10
$Comp
L R Ri22
U 1 1 55FB36F7
P 3500 3050
F 0 "Ri22" V 3600 3050 50  0000 C CNN
F 1 "100" V 3500 3050 50  0000 C CNN
F 2 "" H 3500 3050 60  0001 C CNN
F 3 "" H 3500 3050 60  0001 C CNN
	1    3500 3050
	0    1    1    0   
$EndComp
$Comp
L GND #PWR038
U 1 1 55FB36FE
P 3600 3550
F 0 "#PWR038" H 3600 3300 50  0001 C CNN
F 1 "GND" H 3600 3400 50  0000 C CNN
F 2 "" H 3600 3550 60  0000 C CNN
F 3 "" H 3600 3550 60  0000 C CNN
	1    3600 3550
	1    0    0    -1  
$EndComp
$Comp
L Relay_12V U26
U 1 1 55FB3704
P 4300 3250
F 0 "U26" H 4600 3650 60  0000 C CNN
F 1 "Relay_12V" H 4150 3650 60  0000 C CNN
F 2 "" H 4350 3250 60  0000 C CNN
F 3 "" H 4350 3250 60  0000 C CNN
	1    4300 3250
	1    0    0    -1  
$EndComp
$Comp
L TB_1X2 J12
U 1 1 55FB370B
P 5600 3350
F 0 "J12" H 5600 3650 60  0000 C CNN
F 1 "TB_1X2" H 5650 3050 60  0000 C CNN
F 2 "" H 5550 3400 60  0000 C CNN
F 3 "" H 5550 3400 60  0000 C CNN
	1    5600 3350
	-1   0    0    1   
$EndComp
$Comp
L GND #PWR039
U 1 1 55FB3712
P 1600 5350
F 0 "#PWR039" H 1600 5350 30  0001 C CNN
F 1 "GND" H 1600 5280 30  0001 C CNN
F 2 "" H 1600 5350 60  0001 C CNN
F 3 "" H 1600 5350 60  0001 C CNN
	1    1600 5350
	1    0    0    -1  
$EndComp
$Comp
L LED D14
U 1 1 55FB3718
P 1850 4650
F 0 "D14" V 1850 4750 50  0000 C CNN
F 1 "LED" H 1850 4550 50  0000 C CNN
F 2 "" H 1850 4650 60  0001 C CNN
F 3 "" H 1850 4650 60  0001 C CNN
	1    1850 4650
	-1   0    0    1   
$EndComp
$Comp
L BUZ11 Q11
U 1 1 55FB371F
P 1500 5050
F 0 "Q11" H 1750 5125 50  0000 L CNN
F 1 "2N7002" H 1750 5050 50  0000 L CNN
F 2 "" H 1750 4975 50  0000 L CIN
F 3 "" H 1500 5050 50  0000 L CNN
	1    1500 5050
	1    0    0    -1  
$EndComp
$Comp
L R Ri19
U 1 1 55FB3726
P 2250 4650
F 0 "Ri19" V 2350 4650 50  0000 C CNN
F 1 "100" V 2250 4650 50  0000 C CNN
F 2 "" H 2250 4650 60  0001 C CNN
F 3 "" H 2250 4650 60  0001 C CNN
	1    2250 4650
	0    1    1    0   
$EndComp
Text HLabel 850  5100 0    60   Input ~ 0
In11
$Comp
L R Ri23
U 1 1 55FB372E
P 3500 4650
F 0 "Ri23" V 3600 4650 50  0000 C CNN
F 1 "100" V 3500 4650 50  0000 C CNN
F 2 "" H 3500 4650 60  0001 C CNN
F 3 "" H 3500 4650 60  0001 C CNN
	1    3500 4650
	0    1    1    0   
$EndComp
$Comp
L GND #PWR040
U 1 1 55FB3735
P 3600 5150
F 0 "#PWR040" H 3600 4900 50  0001 C CNN
F 1 "GND" H 3600 5000 50  0000 C CNN
F 2 "" H 3600 5150 60  0000 C CNN
F 3 "" H 3600 5150 60  0000 C CNN
	1    3600 5150
	1    0    0    -1  
$EndComp
$Comp
L Relay_12V U27
U 1 1 55FB373B
P 4300 4850
F 0 "U27" H 4600 5250 60  0000 C CNN
F 1 "Relay_12V" H 4150 5250 60  0000 C CNN
F 2 "" H 4350 4850 60  0000 C CNN
F 3 "" H 4350 4850 60  0000 C CNN
	1    4300 4850
	1    0    0    -1  
$EndComp
$Comp
L TB_1X2 J13
U 1 1 55FB3742
P 5600 4950
F 0 "J13" H 5600 5250 60  0000 C CNN
F 1 "TB_1X2" H 5650 4650 60  0000 C CNN
F 2 "" H 5550 5000 60  0000 C CNN
F 3 "" H 5550 5000 60  0000 C CNN
	1    5600 4950
	-1   0    0    1   
$EndComp
$Comp
L GND #PWR041
U 1 1 55FB3749
P 1600 6900
F 0 "#PWR041" H 1600 6900 30  0001 C CNN
F 1 "GND" H 1600 6830 30  0001 C CNN
F 2 "" H 1600 6900 60  0001 C CNN
F 3 "" H 1600 6900 60  0001 C CNN
	1    1600 6900
	1    0    0    -1  
$EndComp
$Comp
L LED D15
U 1 1 55FB374F
P 1850 6200
F 0 "D15" V 1850 6300 50  0000 C CNN
F 1 "LED" H 1850 6100 50  0000 C CNN
F 2 "" H 1850 6200 60  0001 C CNN
F 3 "" H 1850 6200 60  0001 C CNN
	1    1850 6200
	-1   0    0    1   
$EndComp
$Comp
L BUZ11 Q12
U 1 1 55FB3756
P 1500 6600
F 0 "Q12" H 1750 6675 50  0000 L CNN
F 1 "2N7002" H 1750 6600 50  0000 L CNN
F 2 "" H 1750 6525 50  0000 L CIN
F 3 "" H 1500 6600 50  0000 L CNN
	1    1500 6600
	1    0    0    -1  
$EndComp
$Comp
L R Ri20
U 1 1 55FB375D
P 2250 6200
F 0 "Ri20" V 2350 6200 50  0000 C CNN
F 1 "100" V 2250 6200 50  0000 C CNN
F 2 "" H 2250 6200 60  0001 C CNN
F 3 "" H 2250 6200 60  0001 C CNN
	1    2250 6200
	0    1    1    0   
$EndComp
Text HLabel 850  6650 0    60   Input ~ 0
In12
$Comp
L R Ri24
U 1 1 55FB3765
P 3500 6200
F 0 "Ri24" V 3600 6200 50  0000 C CNN
F 1 "100" V 3500 6200 50  0000 C CNN
F 2 "" H 3500 6200 60  0001 C CNN
F 3 "" H 3500 6200 60  0001 C CNN
	1    3500 6200
	0    1    1    0   
$EndComp
$Comp
L GND #PWR042
U 1 1 55FB376C
P 3600 6700
F 0 "#PWR042" H 3600 6450 50  0001 C CNN
F 1 "GND" H 3600 6550 50  0000 C CNN
F 2 "" H 3600 6700 60  0000 C CNN
F 3 "" H 3600 6700 60  0000 C CNN
	1    3600 6700
	1    0    0    -1  
$EndComp
$Comp
L Relay_12V U28
U 1 1 55FB3772
P 4300 6400
F 0 "U28" H 4600 6800 60  0000 C CNN
F 1 "Relay_12V" H 4150 6800 60  0000 C CNN
F 2 "" H 4350 6400 60  0000 C CNN
F 3 "" H 4350 6400 60  0000 C CNN
	1    4300 6400
	1    0    0    -1  
$EndComp
$Comp
L TB_1X2 J14
U 1 1 55FB3779
P 5600 6500
F 0 "J14" H 5600 6800 60  0000 C CNN
F 1 "TB_1X2" H 5650 6200 60  0000 C CNN
F 2 "" H 5550 6550 60  0000 C CNN
F 3 "" H 5550 6550 60  0000 C CNN
	1    5600 6500
	-1   0    0    1   
$EndComp
$Comp
L GND #PWR043
U 1 1 55FB3780
P 6850 1850
F 0 "#PWR043" H 6850 1850 30  0001 C CNN
F 1 "GND" H 6850 1780 30  0001 C CNN
F 2 "" H 6850 1850 60  0001 C CNN
F 3 "" H 6850 1850 60  0001 C CNN
	1    6850 1850
	1    0    0    -1  
$EndComp
$Comp
L LED D16
U 1 1 55FB3786
P 7100 1150
F 0 "D16" V 7100 1250 50  0000 C CNN
F 1 "LED" H 7100 1050 50  0000 C CNN
F 2 "" H 7100 1150 60  0001 C CNN
F 3 "" H 7100 1150 60  0001 C CNN
	1    7100 1150
	-1   0    0    1   
$EndComp
$Comp
L BUZ11 Q13
U 1 1 55FB378D
P 6750 1550
F 0 "Q13" H 7000 1625 50  0000 L CNN
F 1 "2N7002" H 7000 1550 50  0000 L CNN
F 2 "" H 7000 1475 50  0000 L CIN
F 3 "" H 6750 1550 50  0000 L CNN
	1    6750 1550
	1    0    0    -1  
$EndComp
Text HLabel 6100 1600 0    60   Input ~ 0
In13
$Comp
L R Ri29
U 1 1 55FB3795
P 8900 1150
F 0 "Ri29" V 9000 1150 50  0000 C CNN
F 1 "100" V 8900 1150 50  0000 C CNN
F 2 "" H 8900 1150 60  0001 C CNN
F 3 "" H 8900 1150 60  0001 C CNN
	1    8900 1150
	0    1    1    0   
$EndComp
$Comp
L GND #PWR044
U 1 1 55FB379C
P 9000 1600
F 0 "#PWR044" H 9000 1350 50  0001 C CNN
F 1 "GND" H 9000 1450 50  0000 C CNN
F 2 "" H 9000 1600 60  0000 C CNN
F 3 "" H 9000 1600 60  0000 C CNN
	1    9000 1600
	1    0    0    -1  
$EndComp
$Comp
L Relay_12V U33
U 1 1 55FB37A2
P 9700 1350
F 0 "U33" H 10000 1750 60  0000 C CNN
F 1 "Relay_12V" H 9550 1750 60  0000 C CNN
F 2 "" H 9750 1350 60  0000 C CNN
F 3 "" H 9750 1350 60  0000 C CNN
	1    9700 1350
	1    0    0    -1  
$EndComp
$Comp
L GND #PWR045
U 1 1 55FB37A9
P 6850 3450
F 0 "#PWR045" H 6850 3450 30  0001 C CNN
F 1 "GND" H 6850 3380 30  0001 C CNN
F 2 "" H 6850 3450 60  0001 C CNN
F 3 "" H 6850 3450 60  0001 C CNN
	1    6850 3450
	1    0    0    -1  
$EndComp
$Comp
L LED D17
U 1 1 55FB37AF
P 7100 2750
F 0 "D17" V 7100 2850 50  0000 C CNN
F 1 "LED" H 7100 2650 50  0000 C CNN
F 2 "" H 7100 2750 60  0001 C CNN
F 3 "" H 7100 2750 60  0001 C CNN
	1    7100 2750
	-1   0    0    1   
$EndComp
$Comp
L BUZ11 Q14
U 1 1 55FB37B6
P 6750 3150
F 0 "Q14" H 7000 3225 50  0000 L CNN
F 1 "2N7002" H 7000 3150 50  0000 L CNN
F 2 "" H 7000 3075 50  0000 L CIN
F 3 "" H 6750 3150 50  0000 L CNN
	1    6750 3150
	1    0    0    -1  
$EndComp
$Comp
L R Ri26
U 1 1 55FB37BD
P 7500 2750
F 0 "Ri26" V 7600 2750 50  0000 C CNN
F 1 "100" V 7500 2750 50  0000 C CNN
F 2 "" H 7500 2750 60  0001 C CNN
F 3 "" H 7500 2750 60  0001 C CNN
	1    7500 2750
	0    1    1    0   
$EndComp
Text HLabel 6100 3200 0    60   Input ~ 0
In14
$Comp
L R Ri30
U 1 1 55FB37C5
P 8900 2750
F 0 "Ri30" V 9000 2750 50  0000 C CNN
F 1 "100" V 8900 2750 50  0000 C CNN
F 2 "" H 8900 2750 60  0001 C CNN
F 3 "" H 8900 2750 60  0001 C CNN
	1    8900 2750
	0    1    1    0   
$EndComp
$Comp
L GND #PWR046
U 1 1 55FB37CC
P 9000 3250
F 0 "#PWR046" H 9000 3000 50  0001 C CNN
F 1 "GND" H 9000 3100 50  0000 C CNN
F 2 "" H 9000 3250 60  0000 C CNN
F 3 "" H 9000 3250 60  0000 C CNN
	1    9000 3250
	1    0    0    -1  
$EndComp
$Comp
L Relay_12V U34
U 1 1 55FB37D2
P 9700 2950
F 0 "U34" H 10000 3350 60  0000 C CNN
F 1 "Relay_12V" H 9550 3350 60  0000 C CNN
F 2 "" H 9750 2950 60  0000 C CNN
F 3 "" H 9750 2950 60  0000 C CNN
	1    9700 2950
	1    0    0    -1  
$EndComp
$Comp
L GND #PWR047
U 1 1 55FB37D9
P 6850 5050
F 0 "#PWR047" H 6850 5050 30  0001 C CNN
F 1 "GND" H 6850 4980 30  0001 C CNN
F 2 "" H 6850 5050 60  0001 C CNN
F 3 "" H 6850 5050 60  0001 C CNN
	1    6850 5050
	1    0    0    -1  
$EndComp
$Comp
L LED D18
U 1 1 55FB37DF
P 7100 4350
F 0 "D18" V 7100 4450 50  0000 C CNN
F 1 "LED" H 7100 4250 50  0000 C CNN
F 2 "" H 7100 4350 60  0001 C CNN
F 3 "" H 7100 4350 60  0001 C CNN
	1    7100 4350
	-1   0    0    1   
$EndComp
$Comp
L BUZ11 Q15
U 1 1 55FB37E6
P 6750 4750
F 0 "Q15" H 7000 4825 50  0000 L CNN
F 1 "2N7002" H 7000 4750 50  0000 L CNN
F 2 "" H 7000 4675 50  0000 L CIN
F 3 "" H 6750 4750 50  0000 L CNN
	1    6750 4750
	1    0    0    -1  
$EndComp
$Comp
L R Ri27
U 1 1 55FB37ED
P 7500 4350
F 0 "Ri27" V 7600 4350 50  0000 C CNN
F 1 "100" V 7500 4350 50  0000 C CNN
F 2 "" H 7500 4350 60  0001 C CNN
F 3 "" H 7500 4350 60  0001 C CNN
	1    7500 4350
	0    1    1    0   
$EndComp
Text HLabel 6100 4800 0    60   Input ~ 0
In15
$Comp
L R Ri31
U 1 1 55FB37F5
P 8900 4350
F 0 "Ri31" V 9000 4350 50  0000 C CNN
F 1 "100" V 8900 4350 50  0000 C CNN
F 2 "" H 8900 4350 60  0001 C CNN
F 3 "" H 8900 4350 60  0001 C CNN
	1    8900 4350
	0    1    1    0   
$EndComp
$Comp
L GND #PWR048
U 1 1 55FB37FC
P 9000 4850
F 0 "#PWR048" H 9000 4600 50  0001 C CNN
F 1 "GND" H 9000 4700 50  0000 C CNN
F 2 "" H 9000 4850 60  0000 C CNN
F 3 "" H 9000 4850 60  0000 C CNN
	1    9000 4850
	1    0    0    -1  
$EndComp
$Comp
L Relay_12V U35
U 1 1 55FB3802
P 9700 4550
F 0 "U35" H 10000 4950 60  0000 C CNN
F 1 "Relay_12V" H 9550 4950 60  0000 C CNN
F 2 "" H 9750 4550 60  0000 C CNN
F 3 "" H 9750 4550 60  0000 C CNN
	1    9700 4550
	1    0    0    -1  
$EndComp
$Comp
L GND #PWR049
U 1 1 55FB3809
P 6850 6550
F 0 "#PWR049" H 6850 6550 30  0001 C CNN
F 1 "GND" H 6850 6480 30  0001 C CNN
F 2 "" H 6850 6550 60  0001 C CNN
F 3 "" H 6850 6550 60  0001 C CNN
	1    6850 6550
	1    0    0    -1  
$EndComp
$Comp
L LED D19
U 1 1 55FB380F
P 7100 5900
F 0 "D19" V 7100 6000 50  0000 C CNN
F 1 "LED" H 7100 5800 50  0000 C CNN
F 2 "" H 7100 5900 60  0001 C CNN
F 3 "" H 7100 5900 60  0001 C CNN
	1    7100 5900
	-1   0    0    1   
$EndComp
$Comp
L BUZ11 Q16
U 1 1 55FB3816
P 6750 6300
F 0 "Q16" H 7000 6375 50  0000 L CNN
F 1 "2N7002" H 7000 6300 50  0000 L CNN
F 2 "" H 7000 6225 50  0000 L CIN
F 3 "" H 6750 6300 50  0000 L CNN
	1    6750 6300
	1    0    0    -1  
$EndComp
$Comp
L R Ri28
U 1 1 55FB381D
P 7500 5900
F 0 "Ri28" V 7600 5900 50  0000 C CNN
F 1 "100" V 7500 5900 50  0000 C CNN
F 2 "" H 7500 5900 60  0001 C CNN
F 3 "" H 7500 5900 60  0001 C CNN
	1    7500 5900
	0    1    1    0   
$EndComp
Text HLabel 6100 6350 0    60   Input ~ 0
In16
$Comp
L R Ri32
U 1 1 55FB3825
P 8900 5900
F 0 "Ri32" V 9000 5900 50  0000 C CNN
F 1 "100" V 8900 5900 50  0000 C CNN
F 2 "" H 8900 5900 60  0001 C CNN
F 3 "" H 8900 5900 60  0001 C CNN
	1    8900 5900
	0    1    1    0   
$EndComp
$Comp
L GND #PWR050
U 1 1 55FB382C
P 9000 6400
F 0 "#PWR050" H 9000 6150 50  0001 C CNN
F 1 "GND" H 9000 6250 50  0000 C CNN
F 2 "" H 9000 6400 60  0000 C CNN
F 3 "" H 9000 6400 60  0000 C CNN
	1    9000 6400
	1    0    0    -1  
$EndComp
$Comp
L Relay_12V U36
U 1 1 55FB3832
P 9700 6100
F 0 "U36" H 10000 6500 60  0000 C CNN
F 1 "Relay_12V" H 9550 6500 60  0000 C CNN
F 2 "" H 9750 6100 60  0000 C CNN
F 3 "" H 9750 6100 60  0000 C CNN
	1    9700 6100
	1    0    0    -1  
$EndComp
$Comp
L R Ri25
U 1 1 55FB3839
P 7500 1150
F 0 "Ri25" V 7600 1150 50  0000 C CNN
F 1 "100" V 7500 1150 50  0000 C CNN
F 2 "" H 7500 1150 60  0001 C CNN
F 3 "" H 7500 1150 60  0001 C CNN
	1    7500 1150
	0    1    1    0   
$EndComp
$Comp
L TB_1X2 J15
U 1 1 55FB3840
P 11000 1450
F 0 "J15" H 11000 1750 60  0000 C CNN
F 1 "TB_1X2" H 11050 1150 60  0000 C CNN
F 2 "" H 10950 1500 60  0000 C CNN
F 3 "" H 10950 1500 60  0000 C CNN
	1    11000 1450
	-1   0    0    1   
$EndComp
$Comp
L TB_1X2 J16
U 1 1 55FB3847
P 11000 3050
F 0 "J16" H 11000 3350 60  0000 C CNN
F 1 "TB_1X2" H 11050 2750 60  0000 C CNN
F 2 "" H 10950 3100 60  0000 C CNN
F 3 "" H 10950 3100 60  0000 C CNN
	1    11000 3050
	-1   0    0    1   
$EndComp
$Comp
L TB_1X2 J17
U 1 1 55FB384E
P 11000 4650
F 0 "J17" H 11000 4950 60  0000 C CNN
F 1 "TB_1X2" H 11050 4350 60  0000 C CNN
F 2 "" H 10950 4700 60  0000 C CNN
F 3 "" H 10950 4700 60  0000 C CNN
	1    11000 4650
	-1   0    0    1   
$EndComp
$Comp
L TB_1X2 J18
U 1 1 55FB3855
P 11000 6200
F 0 "J18" H 11000 6500 60  0000 C CNN
F 1 "TB_1X2" H 11050 5900 60  0000 C CNN
F 2 "" H 10950 6250 60  0000 C CNN
F 3 "" H 10950 6250 60  0000 C CNN
	1    11000 6200
	-1   0    0    1   
$EndComp
$Comp
L TB_1X2 J10
U 1 1 55FB385C
P 900 800
F 0 "J10" H 900 1100 60  0000 C CNN
F 1 "TB_1X2" H 950 500 60  0000 C CNN
F 2 "" H 850 850 60  0000 C CNN
F 3 "" H 850 850 60  0000 C CNN
	1    900  800 
	1    0    0    -1  
$EndComp
Text Label 1250 700  0    60   ~ 0
220Vac
Text Label 1250 900  0    60   ~ 0
AC_GND
Wire Wire Line
	850  1900 1300 1900
Wire Wire Line
	1600 2050 1600 2150
Wire Wire Line
	1600 1650 1600 1450
Wire Wire Line
	1600 1450 1650 1450
Wire Wire Line
	2050 1450 2100 1450
Wire Wire Line
	3200 1450 3350 1450
Wire Wire Line
	3300 900  2250 900 
Wire Wire Line
	2600 1450 2400 1450
Wire Wire Line
	2250 1000 6500 1000
Wire Wire Line
	2550 1000 2550 6000
Wire Wire Line
	2550 1250 2600 1250
Wire Wire Line
	1250 700  10350 700 
Wire Wire Line
	3650 1450 3700 1450
Wire Wire Line
	850  3500 1300 3500
Wire Wire Line
	1600 3650 1600 3750
Wire Wire Line
	1600 3250 1600 3050
Wire Wire Line
	1600 3050 1650 3050
Wire Wire Line
	2050 3050 2100 3050
Wire Wire Line
	3200 3050 3350 3050
Wire Wire Line
	2600 3050 2400 3050
Wire Wire Line
	3650 3050 3700 3050
Wire Wire Line
	850  5100 1300 5100
Wire Wire Line
	1600 5250 1600 5350
Wire Wire Line
	1600 4850 1600 4650
Wire Wire Line
	1600 4650 1650 4650
Wire Wire Line
	2050 4650 2100 4650
Wire Wire Line
	3200 4650 3350 4650
Wire Wire Line
	2600 4650 2400 4650
Wire Wire Line
	3650 4650 3700 4650
Wire Wire Line
	850  6650 1300 6650
Wire Wire Line
	1600 6800 1600 6900
Wire Wire Line
	1600 6400 1600 6200
Wire Wire Line
	1600 6200 1650 6200
Wire Wire Line
	2050 6200 2100 6200
Wire Wire Line
	3200 6200 3350 6200
Wire Wire Line
	2600 6200 2400 6200
Wire Wire Line
	3650 6200 3700 6200
Wire Wire Line
	6100 1600 6550 1600
Wire Wire Line
	6850 1750 6850 1850
Wire Wire Line
	6850 1350 6850 1150
Wire Wire Line
	6850 1150 6900 1150
Wire Wire Line
	7300 1150 7350 1150
Wire Wire Line
	8450 1150 8750 1150
Wire Wire Line
	7850 1150 7650 1150
Wire Wire Line
	9050 1150 9100 1150
Wire Wire Line
	10250 1350 10650 1350
Wire Wire Line
	6100 3200 6550 3200
Wire Wire Line
	6850 3350 6850 3450
Wire Wire Line
	6850 2950 6850 2750
Wire Wire Line
	6850 2750 6900 2750
Wire Wire Line
	7300 2750 7350 2750
Wire Wire Line
	8450 2750 8750 2750
Wire Wire Line
	7850 2750 7650 2750
Wire Wire Line
	9050 2750 9100 2750
Wire Wire Line
	10250 2950 10650 2950
Wire Wire Line
	6100 4800 6550 4800
Wire Wire Line
	6850 4950 6850 5050
Wire Wire Line
	6850 4550 6850 4350
Wire Wire Line
	6850 4350 6900 4350
Wire Wire Line
	7300 4350 7350 4350
Wire Wire Line
	8400 4350 8750 4350
Wire Wire Line
	9050 4350 9100 4350
Wire Wire Line
	10250 4550 10650 4550
Wire Wire Line
	6100 6350 6550 6350
Wire Wire Line
	6850 6500 6850 6550
Wire Wire Line
	6850 6100 6850 5900
Wire Wire Line
	6850 5900 6900 5900
Wire Wire Line
	7300 5900 7350 5900
Wire Wire Line
	8450 5900 8750 5900
Wire Wire Line
	7850 5900 7650 5900
Wire Wire Line
	9050 5900 9100 5900
Wire Wire Line
	10250 6100 10650 6100
Wire Wire Line
	7850 2550 7750 2550
Wire Wire Line
	7700 950  7850 950 
Wire Wire Line
	6500 1000 6500 950 
Wire Wire Line
	6500 950  7800 950 
Connection ~ 2550 1000
Wire Wire Line
	10350 5900 10250 5900
Wire Wire Line
	10350 700  10350 5900
Wire Wire Line
	10250 1150 10350 1150
Connection ~ 10350 1150
Wire Wire Line
	10250 2750 10350 2750
Connection ~ 10350 2750
Wire Wire Line
	10250 4350 10350 4350
Connection ~ 10350 4350
Wire Wire Line
	10650 1550 10500 1550
Wire Wire Line
	10500 800  10500 6300
Wire Wire Line
	10500 3150 10650 3150
Wire Wire Line
	10500 6300 10650 6300
Connection ~ 10500 3150
Wire Wire Line
	10650 4750 10500 4750
Connection ~ 10500 4750
Connection ~ 10500 1550
Wire Wire Line
	1250 900  1650 900 
Wire Wire Line
	1650 900  1650 800 
Connection ~ 7750 2550
Wire Wire Line
	7750 5700 7850 5700
Wire Wire Line
	2550 2850 2600 2850
Connection ~ 2550 1250
Wire Wire Line
	2550 4450 2600 4450
Connection ~ 2550 2850
Wire Wire Line
	2550 6000 2600 6000
Connection ~ 2550 4450
Wire Wire Line
	1650 800  10500 800 
Wire Wire Line
	5000 6200 4850 6200
Wire Wire Line
	5000 700  5000 6200
Wire Wire Line
	5000 4650 4850 4650
Wire Wire Line
	5000 1450 4850 1450
Connection ~ 5000 4650
Wire Wire Line
	4850 3050 5000 3050
Connection ~ 5000 3050
Connection ~ 5000 700 
Connection ~ 5000 1450
Wire Wire Line
	4850 1650 5250 1650
Wire Wire Line
	4850 3250 5250 3250
Wire Wire Line
	4850 4850 5250 4850
Wire Wire Line
	4850 6400 5250 6400
Wire Wire Line
	5150 6600 5250 6600
Wire Wire Line
	5150 800  5150 6600
Wire Wire Line
	5150 5050 5250 5050
Wire Wire Line
	5150 1850 5250 1850
Connection ~ 5150 5050
Wire Wire Line
	5250 3450 5150 3450
Connection ~ 5150 3450
Connection ~ 5150 800 
Connection ~ 5150 1850
$Comp
L OPTO-DARLINGTON U21
U 1 1 55FB38E6
P 2900 1350
F 0 "U21" H 2700 1550 50  0000 L CNN
F 1 "OPTO-DARLINGTON" H 2700 1150 50  0000 L CNN
F 2 "" H 2700 1150 50  0000 L CIN
F 3 "" H 2900 1325 50  0000 L CNN
	1    2900 1350
	1    0    0    -1  
$EndComp
$Comp
L OPTO-DARLINGTON U22
U 1 1 55FB38ED
P 2900 2950
F 0 "U22" H 2700 3150 50  0000 L CNN
F 1 "OPTO-DARLINGTON" H 2700 2750 50  0000 L CNN
F 2 "" H 2700 2750 50  0000 L CIN
F 3 "" H 2900 2925 50  0000 L CNN
	1    2900 2950
	1    0    0    -1  
$EndComp
$Comp
L OPTO-DARLINGTON U23
U 1 1 55FB38F4
P 2900 4550
F 0 "U23" H 2700 4750 50  0000 L CNN
F 1 "OPTO-DARLINGTON" H 2700 4350 50  0000 L CNN
F 2 "" H 2700 4350 50  0000 L CIN
F 3 "" H 2900 4525 50  0000 L CNN
	1    2900 4550
	1    0    0    -1  
$EndComp
$Comp
L OPTO-DARLINGTON U24
U 1 1 55FB38FB
P 2900 6100
F 0 "U24" H 2700 6300 50  0000 L CNN
F 1 "OPTO-DARLINGTON" H 2700 5900 50  0000 L CNN
F 2 "" H 2700 5900 50  0000 L CIN
F 3 "" H 2900 6075 50  0000 L CNN
	1    2900 6100
	1    0    0    -1  
$EndComp
$Comp
L OPTO-DARLINGTON U30
U 1 1 55FB3902
P 8150 1050
F 0 "U30" H 7950 1250 50  0000 L CNN
F 1 "OPTO-DARLINGTON" H 7950 850 50  0000 L CNN
F 2 "" H 7950 850 50  0000 L CIN
F 3 "" H 8150 1025 50  0000 L CNN
	1    8150 1050
	1    0    0    -1  
$EndComp
$Comp
L OPTO-DARLINGTON U31
U 1 1 55FB3909
P 8150 2650
F 0 "U31" H 7950 2850 50  0000 L CNN
F 1 "OPTO-DARLINGTON" H 7950 2450 50  0000 L CNN
F 2 "" H 7950 2450 50  0000 L CIN
F 3 "" H 8150 2625 50  0000 L CNN
	1    8150 2650
	1    0    0    -1  
$EndComp
$Comp
L OPTO-DARLINGTON U29
U 1 1 55FB3910
P 8100 4250
F 0 "U29" H 7900 4450 50  0000 L CNN
F 1 "OPTO-DARLINGTON" H 7900 4050 50  0000 L CNN
F 2 "" H 7900 4050 50  0000 L CIN
F 3 "" H 8100 4225 50  0000 L CNN
	1    8100 4250
	1    0    0    -1  
$EndComp
$Comp
L OPTO-DARLINGTON U32
U 1 1 55FB3917
P 8150 5800
F 0 "U32" H 7950 6000 50  0000 L CNN
F 1 "OPTO-DARLINGTON" H 7950 5600 50  0000 L CNN
F 2 "" H 7950 5600 50  0000 L CIN
F 3 "" H 8150 5775 50  0000 L CNN
	1    8150 5800
	1    0    0    -1  
$EndComp
Wire Wire Line
	3300 2950 3200 2950
Wire Wire Line
	9000 1600 9000 1550
Wire Wire Line
	9000 1550 9100 1550
Wire Wire Line
	9000 3250 9000 3150
Wire Wire Line
	9000 3150 9100 3150
Wire Wire Line
	9000 4850 9000 4750
Wire Wire Line
	9000 4750 9100 4750
Wire Wire Line
	9000 6400 9000 6300
Wire Wire Line
	9000 6300 9100 6300
Wire Wire Line
	8600 5800 8450 5800
Wire Wire Line
	8600 1050 8600 5800
Wire Wire Line
	8600 4250 8400 4250
Wire Wire Line
	8600 2650 8450 2650
Connection ~ 8600 4250
Connection ~ 8600 2650
Wire Wire Line
	8600 1050 8450 1050
Wire Wire Line
	7750 950  7750 5700
Connection ~ 7750 950 
Wire Wire Line
	3700 1850 3600 1850
Wire Wire Line
	3600 1850 3600 1950
Wire Wire Line
	3700 3450 3600 3450
Wire Wire Line
	3600 3450 3600 3550
Wire Wire Line
	3700 5050 3600 5050
Wire Wire Line
	3600 5050 3600 5150
Wire Wire Line
	3700 6600 3600 6600
Wire Wire Line
	3600 6600 3600 6700
Wire Wire Line
	3300 4550 3200 4550
Connection ~ 3300 2950
Wire Wire Line
	3300 6100 3200 6100
Connection ~ 3300 4550
Wire Wire Line
	3300 900  3300 6100
Wire Wire Line
	3300 1350 3200 1350
Connection ~ 3300 1350
NoConn ~ 3200 1250
NoConn ~ 3200 2850
NoConn ~ 4850 3450
NoConn ~ 4850 1850
NoConn ~ 3200 4450
NoConn ~ 4850 5050
NoConn ~ 3200 6000
NoConn ~ 4850 6600
NoConn ~ 8450 5700
NoConn ~ 10250 6300
NoConn ~ 8400 4150
NoConn ~ 10250 4750
NoConn ~ 10250 3150
NoConn ~ 8450 2550
NoConn ~ 10250 1550
NoConn ~ 8450 950 
$Comp
L PWR_FLAG #FLG051
U 1 1 55FDBEDA
P 1850 700
F 0 "#FLG051" H 1850 795 50  0001 C CNN
F 1 "PWR_FLAG" H 1850 880 50  0000 C CNN
F 2 "" H 1850 700 60  0000 C CNN
F 3 "" H 1850 700 60  0000 C CNN
	1    1850 700 
	1    0    0    -1  
$EndComp
$Comp
L PWR_FLAG #FLG052
U 1 1 55FDBF60
P 2150 800
F 0 "#FLG052" H 2150 895 50  0001 C CNN
F 1 "PWR_FLAG" H 2150 980 50  0000 C CNN
F 2 "" H 2150 800 60  0000 C CNN
F 3 "" H 2150 800 60  0000 C CNN
	1    2150 800 
	1    0    0    -1  
$EndComp
Wire Wire Line
	7800 4150 7750 4150
Connection ~ 7750 4150
Wire Wire Line
	7800 4350 7650 4350
$EndSCHEMATC
